"region" "gender" "color" "age" "weight" "trt.time" "trt.temp" "quality" "growth"
"1" "N" "male" "brown" 7.05 26.18 16.41 12.83 13.39 12.66
"2" "N" "male" "white" 3.48 22.5 16.65 19.92 22.85 14.08
"3" "N" "female" "white" 18.44 25.03 12.18 11.21 12.28 6.43
"4" "N" "male" "brown" 11.94 26.71 10.36 12.57 13.87 8.16
"5" "N" "male" "brown" 4.82 22.99 15.72 12.79 15.33 10.13
"6" "N" "male" "brown" 31.08 29.33 12.86 14.46 20.37 8.68
"7" "N" "male" "brown" 30.81 28.6 14.67 13.46 17.89 10.32
"8" "N" "male" "brown" 2.13 23.81 13.25 13.78 15.23 7.13
"9" "N" "male" "white" 1.17 22.58 14.84 13.58 16.66 10.61
"10" "N" "female" "white" 8.58 23.39 18.73 19.23 19.35 12.99
"11" "N" "male" "brown" 24.04 28.37 15.36 19.84 18.15 13.38
"12" "N" "male" "white" 20.43 28.46 13.88 12.86 15.31 9.56
"13" "N" "female" "white" 10.73 24.29 10.53 19.73 16.63 9.25
"14" "N" "female" "white" 6.96 22.96 12.11 18.88 15.88 11.38
"15" "N" "female" "white" 7.24 24.61 12.29 14.38 16.98 11.6
"16" "N" "female" "white" 24.48 28.75 18.32 10.26 20.19 13.95
"17" "N" "male" "white" 8.85 23.7 10.81 13.67 15.82 8
"18" "N" "male" "brown" 19.17 24.66 12.82 17.58 16.45 11.87
"19" "N" "male" "brown" 1.48 23.6 18.09 14.83 20.76 9.86
"20" "N" "female" "white" 2.62 22.9 18.71 16.67 21.1 11.85
"21" "W" "female" "brown" 4.49 16.15 11.55 14.32 16.33 10.53
"22" "W" "male" "white" 33.05 19.43 18.1 14.4 17.02 11.35
"23" "W" "male" "white" 11.5 17.8 16.47 17.91 17.79 11.88
"24" "W" "male" "white" 19.64 17.68 19.17 14.81 17.22 12.79
"25" "W" "male" "brown" 25.5 16.92 15.12 18.95 18.03 12.54
"26" "W" "male" "white" 5.19 14.13 15.54 18.22 23.9 10.56
"27" "W" "male" "white" 3 15.43 15.6 11.91 13.13 11.95
"28" "W" "female" "white" 2.49 15.16 15.02 17.46 15.3 10.09
"29" "W" "male" "white" 8.57 16.47 18.07 12.1 17.77 11.4
"30" "W" "male" "white" 7.98 15.81 11.07 11.7 10.16 9.02
"31" "W" "female" "white" 29.75 19.5 13.39 13.36 13.9 9.23
"32" "W" "male" "brown" 2.32 14.4 18.56 14.14 14.19 10.72
"33" "W" "male" "white" 14.36 16.81 10.93 10.04 15.6 9.2
"34" "W" "male" "brown" 4.53 15.93 16.09 19.47 21.24 13.26
"35" "W" "male" "brown" 23.3 18.03 19.61 10.97 12.84 11.22
"36" "W" "male" "white" 8.15 14.77 12.57 11.16 13.73 10.43
"37" "W" "male" "white" 15.65 16.06 11.66 17.71 12.72 11
"38" "W" "male" "white" 7.23 14.23 18.3 18 19.8 11.85
"39" "W" "male" "brown" 3.25 14.55 19.11 11.43 17.96 12.05
"40" "W" "male" "white" 8.91 15.42 12.16 15.24 17.97 10.32
