<?xml version="1.0" encoding="UTF-8" standalone="no"?>
<!-- Created with Inkscape (http://www.inkscape.org/) -->

<svg
   width="49.947338mm"
   height="13.307392mm"
   viewBox="0 0 49.947338 13.307392"
   version="1.1"
   id="svg5"
   xml:space="preserve"
   inkscape:version="1.2.2 (b0a8486541, 2022-12-01)"
   sodipodi:docname="signature_02.svg"
   xmlns:inkscape="http://www.inkscape.org/namespaces/inkscape"
   xmlns:sodipodi="http://sodipodi.sourceforge.net/DTD/sodipodi-0.dtd"
   xmlns="http://www.w3.org/2000/svg"
   xmlns:svg="http://www.w3.org/2000/svg"><sodipodi:namedview
     id="namedview7"
     pagecolor="#505050"
     bordercolor="#ffffff"
     borderopacity="1"
     inkscape:showpageshadow="0"
     inkscape:pageopacity="0"
     inkscape:pagecheckerboard="1"
     inkscape:deskcolor="#505050"
     inkscape:document-units="mm"
     showgrid="false"
     inkscape:zoom="3.2765255"
     inkscape:cx="62.261075"
     inkscape:cy="45.3224"
     inkscape:window-width="1914"
     inkscape:window-height="1199"
     inkscape:window-x="2831"
     inkscape:window-y="746"
     inkscape:window-maximized="0"
     inkscape:current-layer="layer1" /><defs
     id="defs2" /><g
     inkscape:label="Layer 1"
     inkscape:groupmode="layer"
     id="layer1"
     transform="translate(0.68652778,-2.3421374)"><path
       style="fill:#000000;stroke-width:0.0211667"
       d="m 42.906164,15.630557 c -0.0671,-0.0391 -0.15779,-0.19732 -0.24796,-0.43249 -0.16415,-0.4281 -0.20717,-0.5722 -0.25309,-0.84791 -0.088,-0.52837 -0.11205,-0.65633 -0.15478,-0.82426 -0.0557,-0.2187 -0.0715,-0.231 -0.22475,-0.1748 -0.10072,0.0369 -0.16938,0.0441 -0.42694,0.0444 -0.36282,4.5e-4 -0.5308,-0.0404 -0.71966,-0.17505 -0.064,-0.0457 -0.19262,-0.13553 -0.28575,-0.19973 -0.0931,-0.0642 -0.20083,-0.15539 -0.23932,-0.20264 -0.09,-0.11042 -0.14053,-0.11011 -0.25987,0.002 -0.48201,0.45102 -0.58232,0.53609 -0.69852,0.59238 -0.0697,0.0337 -0.13219,0.0757 -0.13891,0.0932 -0.0191,0.0499 -0.265097,0.17761 -0.446248,0.23176 -0.230157,0.0688 -0.444819,0.0828 -0.640126,0.0418 -0.149646,-0.0314 -0.388787,-0.14104 -0.472912,-0.21679 -0.05519,-0.0497 -0.226179,-0.29322 -0.226179,-0.32212 0,-0.0134 -0.024,-0.0939 -0.05333,-0.17891 -0.05185,-0.15021 -0.05305,-0.16652 -0.04314,-0.58564 0.0066,-0.28085 0.02127,-0.4754 0.04199,-0.55813 0.01749,-0.0699 0.03215,-0.17855 0.03256,-0.24156 5.29e-4,-0.0811 0.01542,-0.13982 0.05097,-0.20108 0.02762,-0.0476 0.05755,-0.11021 0.06652,-0.13916 0.009,-0.0289 0.03775,-0.0861 0.06396,-0.127 0.02621,-0.0409 0.0597,-0.12675 0.07442,-0.19078 0.04153,-0.18069 0.226058,-0.48547 0.407858,-0.67363 0.229326,-0.23734 0.796519,-0.5776896 1.096207,-0.6577796 0.24399,-0.0652 0.68035,-0.0817 0.89724,-0.0338 0.20086,0.0443 0.27388,0.0779 0.36183,0.16671 0.036,0.0364 0.10568,0.1041 0.1548,0.15053 0.12522,0.1183996 0.19814,0.2595196 0.27459,0.5314096 0.0715,0.25422 0.0779,0.3133 0.0437,0.40313 -0.0123,0.0323 -0.0308,0.12098 -0.0412,0.19717 -0.0421,0.30927 -0.0676,0.40904 -0.13655,0.53557 -0.0396,0.0727 -0.0856,0.18452 -0.10214,0.24855 -0.0165,0.064 -0.0553,0.15347 -0.0862,0.19875 -0.0309,0.0453 -0.0562,0.0977 -0.0562,0.11641 0,0.0187 0.0976,0.12977 0.21695,0.24671 0.19505,0.1911 0.24365,0.2262 0.48033,0.34683 l 0.26332,0.13421 0.19311,-0.0115 c 0.22068,-0.0132 0.32459,-0.0488 0.37744,-0.12946 0.0545,-0.0831 0.0692,-0.30118 0.0289,-0.42777 -0.0188,-0.059 -0.0328,-0.17671 -0.0325,-0.27307 2.7e-4,-0.0931 -0.0147,-0.29645 -0.0332,-0.45181 -0.02,-0.16781 -0.0336,-0.44705 -0.0334,-0.68791 4.4e-4,-0.55803 0.0447,-0.73073 0.26791,-1.0457596 0.0516,-0.0728 0.12339,-0.14763 0.15962,-0.16636 0.18994,-0.0982 0.67125,-0.21787 1.05381,-0.26196 0.28562,-0.0329 0.33303,-0.0435 0.3646,-0.0812 0.0473,-0.0565 0.11802,-0.32441 0.18706,-0.70844 0.0352,-0.1955 0.0731,-0.37956 0.0843,-0.40903 0.0198,-0.052 0.0849,-0.36396 0.12543,-0.60078 0.011,-0.064 0.0247,-0.17995 0.0305,-0.2576 0.0103,-0.13719 0.0337,-0.2584 0.1221,-0.6314 0.0235,-0.099 0.0503,-0.22754 0.0597,-0.28575 0.0506,-0.3139 0.0923,-0.492 0.14035,-0.59963 0.0305,-0.0682 0.0704,-0.22514 0.0924,-0.36345 0.0213,-0.13388 0.0491,-0.27023 0.0618,-0.303 0.0127,-0.0328 0.023,-0.10917 0.023,-0.16976 0,-0.0606 0.019,-0.17892 0.0423,-0.26294 0.0233,-0.084 0.0423,-0.20303 0.0423,-0.26447 0,-0.0678 0.0153,-0.14072 0.039,-0.18548 0.0215,-0.0406 0.0447,-0.10234 0.0517,-0.13727 0.0269,-0.13501 0.14248,-0.30672 0.25836,-0.38365 l 0.11163,-0.0741 0.13478,0.0247 c 0.0741,0.0136 0.15648,0.0287 0.18301,0.0336 0.0295,0.005 0.0619,0.0376 0.0834,0.0828 0.0339,0.071 0.0334,0.0776 -0.0136,0.17407 -0.0269,0.0551 -0.0613,0.14309 -0.0764,0.19548 -0.0152,0.0524 -0.0477,0.1524 -0.0724,0.22225 -0.0552,0.15636 -0.17032,0.59814 -0.17032,0.65353 0,0.0223 -0.0183,0.094 -0.0407,0.15921 -0.0856,0.24955 -0.21502,0.7078 -0.2266,0.80266 -0.007,0.0545 -0.0292,0.15625 -0.0501,0.2261 -0.0209,0.0698 -0.0479,0.17462 -0.06,0.23283 -0.0121,0.0582 -0.0552,0.23442 -0.0957,0.39159 -0.0406,0.15716 -0.0944,0.381 -0.11957,0.49741 -0.0252,0.11642 -0.0597,0.25453 -0.0767,0.30692 -0.017,0.0524 -0.0405,0.19526 -0.0523,0.3175 -0.0118,0.12224 -0.0356,0.28416 -0.0528,0.35983 -0.0172,0.0757 -0.0404,0.18997 -0.0516,0.254 -0.0112,0.064 -0.0346,0.1685 -0.0522,0.23216 -0.0404,0.14667 -0.0422,0.31557 -0.003,0.33046 0.0157,0.006 0.14822,-0.004 0.29449,-0.0218 0.14628,-0.018 0.31146,-0.0328 0.36707,-0.0328 0.0556,0 0.15406,-0.01 0.21879,-0.0218 0.0647,-0.012 0.26825,-0.0497 0.45226,-0.0837 0.19228,-0.0355 0.36331,-0.0791 0.40217,-0.10239 0.0372,-0.0223 0.10063,-0.0467 0.141,-0.0543 0.0404,-0.008 0.13513,-0.0385 0.21057,-0.0686 0.1323,-0.0529 0.1477,-0.0544 0.43459,-0.0411 0.16359,0.008 0.30806,0.006 0.32105,-0.003 0.013,-0.009 0.0438,-0.0565 0.0685,-0.10519 0.0247,-0.0487 0.0545,-0.0945 0.0663,-0.1018 0.0118,-0.007 0.0215,-0.0391 0.0215,-0.0706 0,-0.0315 0.0337,-0.15242 0.0749,-0.26862 0.0694,-0.19571 0.10612,-0.30896 0.2576,-0.79337 0.0309,-0.099 0.0738,-0.20392 0.0951,-0.23327 0.0214,-0.0294 0.0486,-0.11396 0.0606,-0.18802 0.0119,-0.0741 0.0451,-0.19026 0.0737,-0.25821 0.0286,-0.068 0.052,-0.14841 0.052,-0.17879 0,-0.0304 0.0231,-0.11401 0.0513,-0.18585 0.048,-0.12231 0.12879,-0.40297 0.1929,-0.67036 0.0153,-0.064 0.0383,-0.20214 0.0511,-0.30691 0.0128,-0.10478 0.0461,-0.26194 0.074,-0.34925 0.028,-0.0873 0.056,-0.19685 0.0623,-0.24342 0.006,-0.0466 0.0327,-0.21325 0.0587,-0.37042 0.0259,-0.15716 0.0493,-0.35242 0.0518,-0.43391 0.003,-0.0815 0.0107,-0.40366 0.0182,-0.71593 l 0.0136,-0.56776 -0.0647,-0.10084 c -0.0801,-0.12487 -0.0842,-0.21715 -0.0128,-0.2886 0.0602,-0.0602 0.1034,-0.0645 0.1907,-0.019 0.0416,0.0217 0.089,0.0283 0.14048,0.0196 0.0665,-0.0112 0.0884,-0.004 0.1514,0.0515 0.0634,0.0556 0.0818,0.0954 0.132,0.28479 0.0575,0.2168 0.0582,0.22713 0.0468,0.68292 -0.007,0.26297 -0.0256,0.54503 -0.0441,0.65328 -0.0797,0.46625 -0.11659,0.65983 -0.13518,0.70908 -0.011,0.0291 -0.0264,0.10257 -0.0342,0.16326 -0.008,0.0607 -0.0386,0.18451 -0.0683,0.27516 -0.0297,0.0907 -0.0762,0.27068 -0.10316,0.40004 -0.027,0.12937 -0.0787,0.30281 -0.11499,0.38542 -0.0363,0.0826 -0.0747,0.19585 -0.0853,0.25163 -0.0107,0.0558 -0.0389,0.1453 -0.0628,0.19894 -0.0238,0.0536 -0.0574,0.16441 -0.0746,0.24615 -0.0172,0.0817 -0.065,0.21965 -0.10617,0.30646 -0.0412,0.0868 -0.0749,0.17445 -0.0749,0.19478 0,0.0567 -0.10433,0.35117 -0.15809,0.44625 -0.0263,0.0466 -0.0547,0.12276 -0.0631,0.16933 -0.008,0.0466 -0.0386,0.11547 -0.0672,0.15312 -0.0665,0.0877 -0.11381,0.222 -0.11381,0.32342 0,0.0576 -0.0219,0.11103 -0.0791,0.19313 -0.0664,0.0953 -0.0813,0.13732 -0.093,0.26166 -0.008,0.0815 -0.0209,0.18795 -0.0293,0.23657 -0.0143,0.0821 -0.009,0.0956 0.0697,0.1905 0.1726,0.20713 0.27605,0.51836 0.24823,0.7468 -0.0417,0.3428796 -0.13154,0.5707996 -0.31306,0.7946296 -0.0283,0.0349 -0.0663,0.0924 -0.0844,0.12774 -0.0476,0.0929 -0.55815,0.60237 -0.69382,0.69233 -0.0634,0.0421 -0.17402,0.10419 -0.2458,0.1381 -0.0718,0.0339 -0.16103,0.0873 -0.19833,0.11872 -0.0373,0.0314 -0.0976,0.0721 -0.13408,0.0905 -0.0364,0.0184 -0.0917,0.0572 -0.12274,0.0862 -0.0701,0.0655 -0.10226,0.0483 -0.10226,-0.0547 0,-0.0782 -0.002,-0.0796 -0.11113,-0.1054 -0.0611,-0.0144 -0.14964,-0.0335 -0.19672,-0.0425 -0.0958,-0.0183 -0.25689,-0.1201 -0.37091,-0.23441 -0.0415,-0.0416 -0.10205,-0.0936 -0.13447,-0.11538 -0.0711,-0.0478 -0.12284,-0.16265 -0.11399,-0.25286 0.015,-0.15312 0.23792,-0.16023 0.40527,-0.0129 0.13271,0.11682 0.21636,0.14672 0.41052,0.14672 0.14268,0 0.17604,-0.007 0.24562,-0.0547 0.0518,-0.0352 0.0956,-0.0899 0.12264,-0.15346 0.0232,-0.0543 0.0685,-0.12732 0.1008,-0.16225 0.0323,-0.0349 0.0703,-0.10441 0.0845,-0.15441 0.0291,-0.10259 0.10099,-0.14802 0.1731,-0.10943 0.0492,0.0263 0.0499,0.0162 0.007,-0.10567 -0.0378,-0.10867 -0.0204,-0.21249 0.0636,-0.37921 0.0272,-0.0539 0.0562,-0.13128 0.0646,-0.17203 0.008,-0.0408 0.0353,-0.1150196 0.0598,-0.1650496 0.037,-0.0756 0.0406,-0.10144 0.0211,-0.15306 -0.0208,-0.0552 -0.0166,-0.0707 0.0381,-0.13948 0.15357,-0.19323 0.0301,-0.2603 -0.34652,-0.18823 -0.16646,0.0318 -0.25957,0.0691 -0.35153,0.14082 -0.0278,0.0216 -0.0671,0.0393 -0.0875,0.0393 -0.0562,0 -0.31268,0.1804 -0.44737,0.31463 -0.0658,0.0656 -0.15966,0.1559696 -0.20853,0.2008196 -0.049,0.045 -0.11313,0.13516 -0.14298,0.20108 -0.0298,0.0657 -0.0798,0.15765 -0.11122,0.20422 -0.0856,0.12693 -0.26074,0.67335 -0.42741,1.3335 -0.0387,0.15321 -0.0416,0.21365 -0.0308,0.635 0.0237,0.92532 0.10012,1.15441 0.4374,1.31084 0.14142,0.0656 0.23821,0.0684 0.36877,0.0106 0.0661,-0.0292 0.11953,-0.0393 0.16074,-0.0302 0.0463,0.0102 0.11177,-0.008 0.26215,-0.0743 0.11022,-0.0483 0.22246,-0.0861 0.24941,-0.0838 0.0852,0.007 0.099,7.3e-4 0.12724,-0.0582 0.0181,-0.0378 0.0541,-0.065 0.10486,-0.0794 0.0425,-0.012 0.0949,-0.037 0.11642,-0.0555 0.0831,-0.0714 0.24721,-0.1481 0.26281,-0.12285 0.0305,0.0494 -0.0237,0.15877 -0.12471,0.25174 -0.0569,0.0524 -0.12968,0.13082 -0.16169,0.17429 -0.0683,0.0928 -0.15107,0.1473 -0.29708,0.19565 -0.0738,0.0244 -0.11865,0.0551 -0.14817,0.10136 -0.034,0.0532 -0.0821,0.081 -0.24341,0.14045 -0.19591,0.0722 -0.20926,0.0742 -0.51859,0.0751 l -0.3175,10e-4 -0.15973,-0.0997 c -0.21284,-0.13289 -0.34405,-0.26468 -0.37843,-0.3801 -0.015,-0.0504 -0.0548,-0.14406 -0.0885,-0.20809 -0.0391,-0.0744 -0.0612,-0.14835 -0.0612,-0.20499 0,-0.0487 -0.0141,-0.15519 -0.0312,-0.2366 -0.0382,-0.1815 -0.043,-0.40924 -0.0255,-1.19362 0.0135,-0.60279 0.0142,-0.60968 0.0694,-0.71863 0.0307,-0.0605 0.0732,-0.13429 0.0945,-0.16396 0.0213,-0.0297 0.0495,-0.11546 0.0627,-0.19063 0.0265,-0.15105 0.0524,-0.20995 0.168,-0.3819 0.19249,-0.28641 0.34408,-0.5769596 0.32583,-0.6245096 -0.0262,-0.0682 -0.59164,-0.0497 -0.74101,0.0243 -0.0723,0.0358 -0.0817,0.0506 -0.10519,0.16629 -0.0674,0.3316296 -0.1144,0.6276696 -0.10258,0.6467896 0.007,0.0116 -0.002,0.0804 -0.0195,0.15284 -0.0179,0.0724 -0.0423,0.20314 -0.0543,0.29045 -0.012,0.0873 -0.0361,0.23495 -0.0537,0.32808 -0.0176,0.0931 -0.0413,0.23601 -0.0526,0.3175 -0.0113,0.0815 -0.0391,0.2339 -0.0617,0.33867 -0.0226,0.10478 -0.0521,0.24289 -0.0655,0.30692 -0.0134,0.064 -0.0381,0.17104 -0.0547,0.2378 -0.0167,0.0668 -0.0303,0.14411 -0.0303,0.17187 0,0.0278 -0.019,0.11011 -0.0423,0.18299 -0.0262,0.0821 -0.0423,0.1908 -0.0423,0.28581 0,0.10775 -0.0163,0.20283 -0.0547,0.32003 -0.0361,0.11008 -0.0512,0.19381 -0.0443,0.24637 0.006,0.0438 -0.003,0.12952 -0.0191,0.1905 -0.0162,0.061 -0.0296,0.1454 -0.0298,0.18759 -2.2e-4,0.0422 -0.0132,0.11363 -0.0291,0.15875 -0.0301,0.0853 -0.0783,0.35508 -0.1187,0.66412 -0.0298,0.22798 -0.1165,0.4725 -0.19548,0.55148 -0.087,0.087 -0.24117,0.12682 -0.31792,0.0821 z m 0.11049,-1.20647 c 0.0186,-0.0749 0.0453,-0.15699 0.0593,-0.18242 0.014,-0.0254 0.0257,-0.0921 0.026,-0.14817 2.6e-4,-0.0561 0.0178,-0.14005 0.0389,-0.18663 0.0397,-0.0875 0.076,-0.26572 0.0991,-0.4868 0.007,-0.0699 0.0315,-0.16869 0.0538,-0.21965 0.0223,-0.051 0.0405,-0.13844 0.0405,-0.19441 0,-0.056 0.01,-0.12733 0.0216,-0.15857 0.0119,-0.0312 0.026,-0.1152 0.0314,-0.18658 0.0207,-0.27519 0.0496,-0.47138 0.0801,-0.54254 0.0174,-0.0408 0.038,-0.14552 0.0458,-0.23283 0.008,-0.0873 0.0278,-0.22067 0.0444,-0.29634 0.0498,-0.22608 0.0955,-0.56062 0.10786,-0.78995 0.006,-0.11851 0.0311,-0.2869 0.0549,-0.37421 0.0249,-0.0914 0.0443,-0.23056 0.0456,-0.32809 l 0.002,-0.1693296 -0.11642,0.005 c -0.0832,0.004 -0.15876,0.026 -0.26458,0.0785 -0.1321,0.0656 -0.38414,0.15337 -0.54449,0.18969 -0.094,0.0213 -0.26261,0.2415 -0.28848,0.37671 -0.0563,0.294 -0.0492,0.84626 0.0196,1.53694 0.0268,0.26885 0.0478,0.32138 0.1288,0.32138 0.0673,0 0.14481,0.0652 0.14469,0.12171 0,0.0204 -0.0175,0.0657 -0.0389,0.10066 -0.0641,0.10511 -0.1314,0.30589 -0.11916,0.35554 0.006,0.0256 0.0209,0.22748 0.0324,0.44867 0.0319,0.61353 0.0458,0.73085 0.0963,0.81638 0.0246,0.0416 0.0612,0.12538 0.0814,0.18629 0.0202,0.0609 0.0473,0.10724 0.0601,0.10298 0.0128,-0.004 0.0385,-0.0691 0.0571,-0.14396 z m -4.451216,-1.13109 c 0.05893,-0.0175 0.119247,-0.0464 0.134047,-0.0642 0.0148,-0.0178 0.03464,-0.12496 0.04409,-0.23806 0.02315,-0.27711 0.02492,-0.28174 0.133936,-0.3501 0.103854,-0.0651 0.138809,-0.0606 0.138809,0.018 0,0.0579 0.05426,0.0947 0.139454,0.0947 0.19496,0 0.79306,-0.53158 0.84625,-0.75214 0.008,-0.0345 0.0532,-0.14374 0.0998,-0.24269 0.0466,-0.099 0.13571,-0.32753 0.19808,-0.50795 0.10213,-0.29543 0.1134,-0.34573 0.1134,-0.50622 0,-0.17442 -0.002,-0.18143 -0.0952,-0.33089 -0.10972,-0.17604 -0.27569,-0.29973 -0.48121,-0.35862 -0.11115,-0.0318 -0.13597,-0.032 -0.29634,-0.002 -0.0963,0.0182 -0.25599,0.0474 -0.35494,0.0651 -0.262789,0.0469 -0.509918,0.17637 -0.605753,0.31746 -0.03954,0.0582 -0.101094,0.14393 -0.136795,0.1905 -0.148965,0.1943 -0.273455,0.37798 -0.273455,0.40346 0,0.015 -0.02858,0.0986 -0.0635,0.18584 -0.03493,0.0872 -0.0635,0.17513 -0.0635,0.19535 0,0.0202 -0.02397,0.0874 -0.05326,0.14935 -0.0408,0.0863 -0.0502,0.13174 -0.04016,0.1945 0.0074,0.0462 -0.0072,0.22285 -0.03347,0.40533 -0.05451,0.37855 -0.04152,0.58559 0.05266,0.83936 0.105551,0.28443 0.302348,0.38125 0.597024,0.29374 z m 0.599046,-0.81082 c 0,-0.0114 0.0151,-0.0264 0.0335,-0.0335 0.0206,-0.008 0.0303,-0.003 0.0251,0.0123 -0.0106,0.0316 -0.0587,0.0491 -0.0587,0.0212 z m 0.0847,-0.18571 c 0,-0.0374 0.0456,-0.0309 0.0587,0.008 0.005,0.0138 -0.007,0.0251 -0.0251,0.0251 -0.0184,0 -0.0335,-0.0151 -0.0335,-0.0335 z m 7.97313,-1.74768 c 0.0703,-0.0757 0.0981,-0.16296 0.10013,-0.3143 0.002,-0.13411 0.003,-0.13776 0.0605,-0.14433 0.0878,-0.0101 0.13107,-0.0923 0.13149,-0.2499796 4.2e-4,-0.16012 -0.0295,-0.20434 -0.0973,-0.14389 -0.0635,0.0566 -0.10341,0.16026 -0.10341,0.26864 0,0.079 -0.0117,0.1030196 -0.0847,0.1743096 -0.0466,0.0455 -0.0847,0.0965 -0.0847,0.11337 0,0.0324 -0.0783,0.21496 -0.14761,0.34436 -0.0226,0.0422 -0.0356,0.0823 -0.0289,0.089 0.0184,0.0184 0.20157,-0.0803 0.25442,-0.13719 z m -38.3329285,4.00289 c -0.08419,-0.0662 -0.179564,-0.28363 -0.227148,-0.51778 -0.03418,-0.16821 -0.04563,-0.33007 -0.05575,-0.78846 -0.0081,-0.3665 -0.02054,-0.57679 -0.03415,-0.57679 -0.01178,0 -0.05283,0.024 -0.09123,0.0533 -0.0384,0.0293 -0.110736,0.0724 -0.160748,0.0957 -0.05001,0.0233 -0.143318,0.0798 -0.207348,0.12552 -0.06403,0.0457 -0.125197,0.0836 -0.13593,0.0842 -0.01073,6.3e-4 -0.153608,0.069 -0.3175,0.15187 -0.390434,0.19749 -0.428079,0.21007 -0.688441,0.23002 -0.272127,0.0208 -0.40219,-0.008 -0.581824,-0.12809 -0.0885,-0.0593 -0.145021,-0.0828 -0.191302,-0.0797 -0.09996,0.007 -0.11631,-0.0131 -0.103637,-0.12592 0.01168,-0.10395 0.0063,-0.12427 -0.152297,-0.5762 -0.06566,-0.18709 -0.07816,-0.25071 -0.07899,-0.40217 -0.001,-0.18911 0.04917,-0.45556 0.113489,-0.60221 0.02067,-0.0471 0.04389,-0.1238 0.0516,-0.17037 0.07588,-0.45867 0.35497,-0.80496 0.878339,-1.08984 0.316322,-0.17217 0.504876,-0.2352696 0.742207,-0.2483596 0.15462,-0.008 0.232138,-0.003 0.328083,0.0251 0.247359,0.0714 0.572772,0.27467 0.636224,0.39732 0.04385,0.0848 0.09206,0.26089 0.0924,0.33759 3.94e-4,0.089 0.03678,0.16632 0.07189,0.15284 0.01687,-0.007 0.05534,-0.049 0.0855,-0.0946 0.0437,-0.066 0.07171,-0.0855 0.137994,-0.0961 0.04691,-0.007 0.103814,-0.0353 0.130539,-0.0637 0.06336,-0.0674 0.116491,-0.0647 0.134473,0.007 0.01457,0.058 -0.02658,0.11196 -0.08543,0.11196 -0.01386,0 -0.05062,0.0333 -0.0817,0.0741 -0.03409,0.0447 -0.07497,0.0742 -0.103054,0.0744 -0.0256,1.7e-4 -0.05607,0.007 -0.06771,0.0159 -0.04421,0.0325 -0.156721,0.19197 -0.187659,0.26601 -0.01774,0.0425 -0.06073,0.11301 -0.09555,0.15678 -0.03481,0.0438 -0.09963,0.1382 -0.144045,0.20984 -0.220178,0.35516 -0.28156,0.43076 -0.425643,0.52423 -0.07807,0.0506 -0.194326,0.1376 -0.258355,0.19324 -0.258602,0.22473 -0.588893,0.40135 -0.738773,0.39507 -0.177371,-0.007 -0.229287,-0.0873 -0.161759,-0.24895 0.04608,-0.11029 0.21446,-0.2943 0.325877,-0.35613 0.145205,-0.0806 0.429031,-0.34141 0.555737,-0.51071 0.06099,-0.0815 0.136737,-0.17822 0.168331,-0.21495 0.06033,-0.0701 0.168417,-0.36153 0.167622,-0.45187 -0.0012,-0.1313 -0.150726,-0.3279 -0.292928,-0.38504 -0.03072,-0.0123 -0.136109,-0.0358 -0.234195,-0.0521 l -0.178339,-0.0296 -0.156618,0.0744 c -0.19416,0.0922 -0.23597,0.12469 -0.40498,0.31467 -0.247726,0.27846 -0.35905,0.50398 -0.437373,0.88603 -0.06446,0.31442 -0.0037,0.79438 0.112103,0.88547 0.03886,0.0306 0.06201,0.0357 0.09083,0.0203 0.08109,-0.0434 0.231963,-0.0101 0.231963,0.0512 0,0.0154 -0.02381,0.0631 -0.05292,0.10603 -0.06813,0.10039 -0.06665,0.12877 0.0083,0.15981 0.0497,0.0206 0.07968,0.0191 0.15949,-0.008 0.05406,-0.0183 0.128071,-0.0334 0.164478,-0.0334 0.03641,0 0.171805,-0.0278 0.300885,-0.0617 0.12908,-0.0339 0.281595,-0.0724 0.338922,-0.0856 0.05733,-0.0131 0.147814,-0.0553 0.201083,-0.0937 0.05327,-0.0384 0.20639,-0.12324 0.340269,-0.1886 0.207141,-0.10111 0.25989,-0.13759 0.353955,-0.24474 0.09372,-0.10675 0.120463,-0.15762 0.175776,-0.33437 0.03588,-0.11465 0.125256,-0.34181 0.198612,-0.50479 0.07336,-0.16298 0.164949,-0.36777 0.203538,-0.45508 0.03859,-0.0873 0.09341,-0.18961 0.121822,-0.22733 0.05268,-0.0699 0.05125,-0.13251 -0.003,-0.13251 -0.07463,0 -0.04846,-0.12429 0.03811,-0.18101 0.03412,-0.0224 0.07345,-0.0304 0.107154,-0.022 0.105233,0.0264 0.245672,-0.0995 0.181991,-0.16323 -0.06769,-0.0677 0.01245,-0.18414 0.126729,-0.18414 0.04158,0 0.07135,-0.0223 0.116167,-0.087 0.03314,-0.0478 0.1094435,-0.13116 0.1695625,-0.18521 0.06012,-0.054 0.115717,-0.1191 0.123551,-0.14457 0.0086,-0.0279 0.04338,-0.0559 0.08733,-0.0704 0.07058,-0.0233 0.0798,-0.038 0.09951,-0.15842 0.0047,-0.0287 0.02026,-0.0401 0.04845,-0.0353 0.177044,0.0299 0.170957,0.031 0.244962,-0.0443 0.03945,-0.0401 0.09435,-0.0849 0.122003,-0.0994 0.02765,-0.0145 0.09349,-0.0594 0.146309,-0.0997 0.05282,-0.0403 0.141521,-0.0964 0.197119,-0.12453 0.119771,-0.0607 0.201986,-0.16112 0.242732,-0.29651 l 0.02962,-0.0984 -0.05163,0.013 c -0.120202,0.0302 -0.158572,0.0552 -0.172299,0.11242 -0.02595,0.10815 -0.07381,0.17831 -0.136561,0.20018 -0.03418,0.0119 -0.06214,0.0299 -0.06214,0.04 0,0.0101 -0.02956,0.052 -0.06569,0.0932 -0.05477,0.0624 -0.07986,0.0748 -0.15092,0.0748 h -0.08523 l 0.01125,-0.0998 c 0.0088,-0.0782 0.02656,-0.11385 0.08213,-0.16482 0.09064,-0.0831 0.198357,-0.2192 0.232019,-0.29307 0.01452,-0.0319 0.08012,-0.0903 0.146845,-0.13086 0.153844,-0.0935 0.174958,-0.12026 0.188723,-0.23965 0.0097,-0.0837 0.02048,-0.10188 0.07479,-0.12533 0.138581,-0.0598 0.166736,-0.0813 0.186598,-0.14237 0.01136,-0.0349 0.04705,-0.1016 0.0793,-0.14816 0.03226,-0.0466 0.06493,-0.11549 0.07261,-0.15315 0.0099,-0.0487 0.03942,-0.0855 0.10231,-0.12768 0.05663,-0.038 0.108181,-0.0983 0.143592,-0.16816 0.03039,-0.0599 0.08389,-0.14533 0.118892,-0.18981 0.035,-0.0445 0.08507,-0.12373 0.111261,-0.17612 0.02619,-0.0524 0.06114,-0.11067 0.07766,-0.12951 0.09264,-0.10563 0.310385,-0.50815 0.354996,-0.65624 0.01621,-0.0538 0.04625,-0.13 0.06677,-0.16933 0.02051,-0.0393 0.0534,-0.14973 0.07308,-0.24534 0.04257,-0.2068 0.02925,-0.25022 -0.09607,-0.313 -0.07641,-0.0383 -0.126023,-0.0423 -0.518417,-0.0417 -0.448616,6.6e-4 -0.52018,0.01 -0.878416,0.10813 -0.104775,0.0289 -0.3048,0.0807 -0.4445,0.1152 -0.267017,0.066 -0.28725,0.0722 -0.709084,0.21894 -0.14552,0.0506 -0.3503075,0.11747 -0.4550825,0.14855 -0.104775,0.0311 -0.263976,0.0851 -0.353779,0.12008 -0.181418,0.0706 -0.215695,0.0814 -0.502241,0.15866 -0.109919,0.0296 -0.238507,0.0739 -0.28575,0.0984 -0.04724,0.0245 -0.128759,0.0517 -0.181147,0.0605 -0.137982,0.0231 -0.363323,0.10665 -0.429636,0.15926 -0.03857,0.0306 -0.124439,0.0568 -0.263578,0.0804 -0.113503,0.0192 -0.249231,0.0495 -0.301619,0.0671 -0.204082,0.0689 -0.542301,0.19283 -0.582325,0.21337 -0.02315,0.0119 -0.108767,0.0388 -0.190258,0.0599 -0.08149,0.021 -0.160166,0.0475 -0.174831,0.0587 -0.01467,0.0112 -0.09563,0.0375 -0.179917,0.0584 -0.08429,0.0209 -0.234215,0.0681 -0.333169,0.10494 -0.09895,0.0368 -0.222779,0.0793 -0.275167,0.0945 -0.05239,0.0151 -0.198099,0.071 -0.323805,0.12425 -0.125705,0.0532 -0.280249,0.10631 -0.343431,0.11799 -0.06318,0.0117 -0.14491,0.0368 -0.181617,0.0557 -0.03671,0.019 -0.115525,0.049 -0.175151,0.0667 -0.05963,0.0177 -0.1608,0.0585 -0.224829,0.0906 -0.14918,0.0749 -0.54254,0.23314 -0.579476,0.23314 -0.01555,0 -0.07224,0.0336 -0.125983,0.0746 -0.06134,0.0468 -0.160246,0.0927 -0.265721,0.12327 -0.09488,0.0275 -0.226416,0.0864 -0.302205,0.13535 -0.07381,0.0477 -0.195571,0.11135 -0.270582,0.14149 -0.07501,0.0301 -0.194738,0.0928 -0.266059,0.1393 -0.07132,0.0465 -0.143299,0.0845 -0.15995,0.0845 -0.06027,4e-5 -0.290413,0.12593 -0.58537,0.32022 -0.431879,0.28449 -0.54116,0.35244 -0.60721,0.37755 -0.08269,0.0314 -0.33233503,0.19562 -0.49712903,0.32694 -0.07685,0.0612 -0.1634,0.12396 -0.192329,0.13938 -0.07948,0.0424 -0.524878,0.4522896 -0.651877,0.5999496 -0.193307,0.22477 -0.193769,0.35757 -0.0014,0.41397 0.05065,0.0148 0.164719,0.0595 0.253497,0.0992 0.09663,0.0432 0.19538,0.0722 0.246047,0.0722 0.04655,0 0.125128,0.0143 0.174622,0.0318 0.04949,0.0175 0.148323,0.0322 0.21962,0.0327 0.0713,5.1e-4 0.16296803,0.0138 0.20371303,0.0295 0.04075,0.0157 0.125552,0.0484 0.188458,0.0725 0.06291,0.0242 0.136919,0.0651 0.164474,0.091 0.04575,0.043 0.05658,0.0447 0.124699,0.0201 0.06037,-0.0218 0.09461,-0.0219 0.179484,-9e-5 0.05769,0.0148 0.104885,0.0338 0.104885,0.0423 0,0.0277 -0.05174,0.034 -0.111125,0.0136 -0.03709,-0.0127 -0.0799,-0.0124 -0.11802,8.6e-4 -0.03961,0.0138 -0.07267,0.0137 -0.09788,-4.6e-4 -0.02579,-0.0144 -0.06281,-0.0139 -0.114813,0.002 -0.174877,0.052 -0.295161,0.0572 -0.82816603,0.0355 -0.522155,-0.0212 -0.637524,-0.0451 -0.821422,-0.17003 -0.04257,-0.0289 -0.08805,-0.0526 -0.101065,-0.0526 -0.06056,0 -0.19825,-0.13113 -0.251084,-0.23912 -0.0518,-0.10587 -0.05516,-0.12839 -0.04158,-0.27835 0.01385,-0.15287 0.02262,-0.17508 0.139112,-0.35219 0.205328,-0.31219 0.663276,-0.7279996 1.171286,-1.0634996 0.08149,-0.0538 0.218179,-0.14549 0.303751,-0.20371 0.08557,-0.0582 0.27607103,-0.16953 0.42333303,-0.24735 0.147262,-0.0778 0.320137,-0.17674 0.384166,-0.21982 0.06403,-0.0431 0.178251,-0.10951 0.253827,-0.14762 0.07558,-0.0381 0.204164,-0.1098 0.28575,-0.15931 0.08159,-0.0495 0.229302,-0.12973 0.328256,-0.17827 0.09895,-0.0485 0.208492,-0.10367 0.243417,-0.12253 0.205002,-0.1107 0.485286,-0.2389 0.613833,-0.28078 0.08149,-0.0265 0.221927,-0.0851 0.312079,-0.13011 0.09015,-0.045 0.233027,-0.10484 0.3175,-0.13293 0.196161,-0.0652 0.410945,-0.15349 0.492254,-0.20226 0.03492,-0.0209 0.09501,-0.0448 0.133532,-0.0529 0.07018,-0.0148 0.354603,-0.13817 0.533218,-0.23119 0.05239,-0.0273 0.13335,-0.0616 0.179917,-0.0763 0.04657,-0.0147 0.121785,-0.0453 0.167152,-0.0682 0.08877,-0.0447 0.871735,-0.31496 1.028765,-0.35518 0.05239,-0.0134 0.116935,-0.0383 0.14344,-0.0553 0.05814,-0.0373 0.313058,-0.11361 0.629143,-0.18844 0.445978,-0.10557 0.572053,-0.1403 0.658809,-0.18149 0.04802,-0.0228 0.148032,-0.0598 0.22225,-0.0821 0.07422,-0.0224 0.211141,-0.066 0.304274,-0.097 0.09313,-0.031 0.307446,-0.10197 0.47625,-0.15774 0.168805,-0.0558 0.359305,-0.12087 0.423334,-0.14469 0.245981,-0.0915 1.0308985,-0.33751 1.1179555,-0.35039 0.05025,-0.007 0.17408,-0.0422 0.275166,-0.0773 0.256558,-0.089 0.491676,-0.14502 0.702378,-0.16739 0.09895,-0.0105 0.221595,-0.034 0.272536,-0.0523 0.07012,-0.0251 0.178941,-0.0332 0.44793,-0.0332 0.523543,0 0.777952,0.059 0.923395,0.21429 0.09847,0.10511 0.156245,0.23171 0.182162,0.39914 0.01265,0.0817 0.02987,0.14857 0.03828,0.14857 0.02953,0 0.233683,-0.23939 0.277654,-0.32559 0.06882,-0.13492 0.298082,-0.35992 0.586814,-0.57592 0.293547,-0.2196 0.370082,-0.2484 0.498374,-0.18752 0.191793,0.091 0.209054,0.26851 0.04415,0.45403 -0.02587,0.0291 -0.07212,0.0958 -0.102771,0.14816 -0.03065,0.0524 -0.116731,0.15955 -0.191282,0.23813 -0.145036,0.15287 -0.214487,0.17863 -0.29216,0.10833 -0.03475,-0.0314 -0.04269,-0.0316 -0.08865,-0.002 -0.06233,0.0408 -0.245683,0.28641 -0.382473,0.51225 -0.116311,0.19204 -0.236263,0.36383 -0.366388,0.52473 -0.152414,0.18847 -0.357498,0.48596 -0.418924,0.60769 -0.06925,0.13723 -0.282125,0.47529 -0.380199,0.60377 -0.03794,0.0497 -0.113741,0.16993 -0.168457,0.26717 -0.05472,0.0973 -0.115302,0.20247 -0.134633,0.23382 -0.04922,0.0798 -0.01864,0.0962 0.09719,0.0521 0.156124,-0.0595 0.37973,-0.11801 0.575616,-0.15073 0.09896,-0.0165 0.294217,-0.0601 0.433917,-0.0967 0.1397,-0.0367 0.3302,-0.0803 0.423333,-0.097 0.09313,-0.0167 0.221721,-0.0456 0.28575,-0.0643 0.178943,-0.0522 0.449337,-0.0467 0.599694,0.0122 0.214304,0.0839 0.292173,0.17456 0.385317,0.44842 0.07081,0.20817 0.08474,0.38572 0.04318,0.54997 -0.05569,0.22007 -0.214496,0.51148 -0.385045,0.70656 -0.08364,0.0957 -0.171967,0.21294 -0.196279,0.26059 -0.02431,0.0477 -0.121859,0.1658296 -0.216771,0.2625996 -0.09491,0.0968 -0.193819,0.2093 -0.219793,0.25004 -0.02597,0.0407 -0.127023,0.15636 -0.224555,0.25692 -0.09753,0.10056 -0.210758,0.21962 -0.251614,0.26458 -0.141435,0.15565 -0.535044,0.4992 -0.605816,0.52877 -0.06878,0.0287 -0.152744,0.0891 -0.386924,0.27794 -0.06134,0.0495 -0.123892,0.09 -0.139003,0.09 -0.03525,0 -0.232531,0.13321 -0.328557,0.22185 -0.08312,0.0767 -0.415704,0.27161 -0.529167,0.31007 -0.04075,0.0138 -0.105371,0.0522 -0.143612,0.0853 -0.03824,0.0331 -0.08003,0.0601 -0.09286,0.0601 -0.01283,0 -0.08632,0.0414 -0.163305,0.0921 -0.07699,0.0506 -0.206647,0.12778 -0.288139,0.17146 -0.161507,0.0866 -0.226567,0.13571 -0.211632,0.15988 0.0201,0.0325 0.356977,0.0397 0.846632,0.0182 0.2794,-0.0123 0.650875,-0.0247 0.8255,-0.0275 0.174625,-0.003 0.403225,-0.0134 0.508,-0.0236 0.104775,-0.0102 0.261938,-0.0192 0.34925,-0.0201 0.08731,-9e-4 0.263525,-0.0137 0.391584,-0.0285 0.128058,-0.0148 0.366183,-0.0346 0.529166,-0.0442 0.189391,-0.0111 0.340152,-0.0316 0.417751,-0.057 0.109016,-0.0356 0.121447,-0.0457 0.121708,-0.0985 1.7e-4,-0.0324 -0.01974,-0.11811 -0.04423,-0.1905 -0.05044,-0.14912 -0.102563,-0.46047 -0.103535,-0.61846 -6.28e-4,-0.10235 0.04274,-0.34511 0.08886,-0.49742 0.03365,-0.11111 0.173735,-0.28842 0.364785,-0.46172 0.249688,-0.22649 0.35975,-0.28644 0.661934,-0.36058 0.24036,-0.059 0.2796,-0.0628 0.560917,-0.0543 0.41323,0.0124 0.492356,0.0236 0.617587,0.087 0.132184,0.067 0.45073,0.27956 0.551633,0.36816 0.157914,0.13865 0.296001,0.49078 0.361847,0.92274 0.03425,0.22468 0.03418,0.24458 -0.0013,0.39158 -0.04153,0.17218 -0.09419,0.2904 -0.149771,0.33621 -0.02024,0.0167 -0.06893,0.0804 -0.108188,0.1417 -0.03926,0.0613 -0.109725,0.13557 -0.156584,0.16516 -0.18628,0.11759 -0.0019,0.18061 0.272345,0.0931 0.290201,-0.0926 0.5243,-0.17593 0.550007,-0.19569 0.03975,-0.0306 0.03222,-0.10471 -0.02646,-0.26061 -0.0291,-0.0773 -0.05271,-0.17517 -0.05246,-0.21744 6.35e-4,-0.10692 0.07511,-0.43849 0.124227,-0.55311 0.02245,-0.0524 0.06173,-0.14763 0.08728,-0.21166 0.02555,-0.064 0.08517,-0.17833 0.132474,-0.254 0.110956,-0.17748 0.467824,-0.56126 0.573337,-0.61657 0.04493,-0.0236 0.1128,-0.0739 0.150815,-0.11195 0.08915,-0.0892 0.404044,-0.25937 0.533476,-0.28838 0.05527,-0.0124 0.129369,-0.04 0.164668,-0.0613 0.0353,-0.0213 0.08799,-0.0457 0.117099,-0.0542 0.0291,-0.008 0.116404,-0.0429 0.193999,-0.0765 0.181256,-0.0785 0.321866,-0.1133396 0.671628,-0.1663496 0.341537,-0.0518 0.440515,-0.053 0.737106,-0.009 0.310606,0.0456 0.532611,0.11982 0.648204,0.2165496 0.09143,0.0765 0.2795,0.28772 0.363146,0.40783 0.02328,0.0334 0.05325,0.0651 0.06658,0.0703 0.0428,0.0169 0.292083,-0.1942 0.395145,-0.33457 0.09783,-0.13323 0.517422,-0.5261196 0.618816,-0.5794296 0.02824,-0.0148 0.06682,-0.0577 0.08573,-0.0952 0.01891,-0.0375 0.06327,-0.0987 0.09859,-0.13593 0.09085,-0.0958 0.347605,-0.65403 0.417885,-0.90861 0.06158,-0.22307 0.08536,-0.28036 0.15194,-0.36614 0.02188,-0.0282 0.04987,-0.0913 0.0622,-0.14027 0.01425,-0.0566 0.05135,-0.11644 0.101871,-0.16431 0.07857,-0.0744 0.234329,-0.34104 0.234329,-0.40106 0,-0.0171 0.02858,-0.067 0.0635,-0.11094 0.03493,-0.0439 0.0635,-0.10393 0.0635,-0.13329 0,-0.0541 0.119662,-0.18566 0.345286,-0.37952 0.08984,-0.0772 0.110458,-0.11188 0.174625,-0.29378 0.04001,-0.11343 0.07276,-0.2438 0.07276,-0.2897 0,-0.0633 0.01599,-0.10166 0.06615,-0.15879 0.03638,-0.0414 0.08018,-0.10937 0.09733,-0.15096 0.05675,-0.13762 0.133515,-0.21616 0.273168,-0.27948 0.191235,-0.0867 0.306836,-0.0835 0.401553,0.0112 0.09559,0.0956 0.09512,0.18953 -0.0024,0.4795 -0.08319,0.24737 -0.17596,0.43638 -0.337081,0.68678 -0.05993,0.0931 -0.122079,0.20267 -0.138113,0.24342 -0.01604,0.0407 -0.05742,0.13119 -0.09198,0.20099 -0.03455,0.0698 -0.07969,0.17592 -0.100301,0.23583 -0.04249,0.12351 -0.211931,0.39198 -0.35023,0.55494 -0.03601,0.0424 -0.09141,0.12954 -0.123113,0.19357 -0.138553,0.27987 -0.173184,0.33674 -0.296484,0.48683 -0.138168,0.1682 -0.233261,0.30325 -0.335346,0.47625 -0.03435,0.0582 -0.09466,0.13263 -0.13404,0.16537 -0.04634,0.0385 -0.10578,0.13185 -0.168529,0.26458 -0.05332,0.11278 -0.1344,0.28344 -0.180183,0.37924 -0.04578,0.0958 -0.08324,0.1842896 -0.08324,0.1966396 0,0.0123 -0.01925,0.0602 -0.04278,0.10631 -0.02353,0.0461 -0.05703,0.16243 -0.07444,0.25845 -0.01741,0.096 -0.05404,0.23649 -0.08141,0.31216 -0.02736,0.0757 -0.07073,0.24236 -0.09638,0.37042 -0.04958,0.24753 -0.0693,0.33279 -0.119998,0.51858 -0.03974,0.14566 -0.09801,0.40066 -0.145087,0.635 -0.01988,0.099 -0.05434,0.26183 -0.07657,0.36194 -0.05718,0.25751 -0.06058,0.59909 -0.0071,0.70874 0.04046,0.0829 0.04051,0.0829 0.156887,0.077 0.08385,-0.004 0.165149,-0.0294 0.290606,-0.09 0.0958,-0.0462 0.185327,-0.0841 0.198939,-0.0841 0.04705,0 0.293885,-0.13681 0.304713,-0.16889 0.01688,-0.05 0.366732,-0.39848 0.470368,-0.46852 0.0278,-0.0188 0.08087,-0.0801 0.11792,-0.13615 0.04308,-0.0652 0.09027,-0.10914 0.130871,-0.12183 0.03493,-0.0109 0.102419,-0.0573 0.149987,-0.10298 0.08583,-0.0825 0.244064,-0.14431 0.368596,-0.14399 0.153482,3.9e-4 0.608883,0.25227 0.683013,0.37776 0.05303,0.0898 0.178881,0.1931 0.235193,0.1931 0.02689,0 0.06528,-0.0181 0.0853,-0.0402 0.09088,-0.10042 0.189676,-0.0568 0.194469,0.0858 0.0017,0.0506 0.01378,0.14919 0.02685,0.21904 0.01307,0.0699 0.02381,0.18251 0.02388,0.25034 2.12e-4,0.10818 -0.0075,0.13094 -0.06175,0.18521 -0.05061,0.0506 -0.07975,0.0619 -0.16014,0.0619 -0.05405,0 -0.119075,-0.0111 -0.144503,-0.0246 -0.09266,-0.0493 -0.208312,-0.15547 -0.249824,-0.22933 -0.02517,-0.0448 -0.08082,-0.096 -0.136413,-0.12546 -0.06183,-0.0328 -0.115324,-0.0846 -0.156629,-0.15177 -0.0345,-0.0561 -0.0901,-0.1161 -0.123543,-0.1334 -0.03345,-0.0173 -0.08667,-0.0654 -0.118271,-0.10677 -0.0928,-0.12166 -0.149479,-0.10729 -0.349813,0.0887 -0.217883,0.21316 -0.55651,0.5093 -0.660893,0.57798 -0.04523,0.0298 -0.150694,0.11548 -0.234353,0.1905 -0.445176,0.39917 -0.501276,0.42879 -0.831662,0.43911 -0.21989,0.007 -0.270123,0.002 -0.374064,-0.0372 -0.177546,-0.0667 -0.247055,-0.1561 -0.352594,-0.4535 -0.09981,-0.28126 -0.099,-0.27515 -0.05822,-0.43507 0.01652,-0.0648 0.0461,-0.2083 0.06574,-0.31889 0.01963,-0.1106 0.06447,-0.31062 0.09964,-0.4445 0.06981,-0.26577 0.08305,-0.32981 0.133494,-0.64559 0.0186,-0.11641 0.05314,-0.27222 0.07676,-0.34624 0.02457,-0.077 0.04514,-0.20601 0.04807,-0.30149 0.0037,-0.12201 0.01481,-0.17761 0.04113,-0.20669 0.04051,-0.0448 0.08208,-0.25772 0.05571,-0.28539 -0.03345,-0.0351 -0.103842,0.0108 -0.21571,0.14053 -0.27947,0.32414 -0.423401,0.51954 -0.567142,0.76993 -0.04788,0.0834 -0.12236,0.1783 -0.16551,0.21088 -0.04315,0.0326 -0.150275,0.12731 -0.238055,0.21052 -0.08778,0.0832 -0.204142,0.171 -0.258585,0.19508 -0.05445,0.0241 -0.142532,0.0737 -0.195752,0.11036 -0.05322,0.0366 -0.166846,0.0985 -0.252505,0.13755 -0.08566,0.039 -0.161936,0.081 -0.169503,0.0932 -0.0076,0.0122 -0.07221,0.0565 -0.143639,0.0984 -0.07143,0.0419 -0.172394,0.11354 -0.224356,0.15928 -0.142625,0.12554 -0.466154,0.27592 -0.887628,0.41257 -0.213111,0.0691 -0.618677,0.12769 -0.815355,0.11781 -0.104045,-0.005 -0.276238,-0.0708 -0.396162,-0.15081 -0.164929,-0.11007 -0.341393,-0.081 -0.772583,0.12707 -0.131128,0.0633 -0.422872,0.15535 -0.5715,0.18033 -0.04657,0.008 -0.146579,0.0357 -0.22225,0.062 -0.07607,0.0264 -0.220068,0.0538 -0.322066,0.0614 -0.101465,0.008 -0.230052,0.0231 -0.28575,0.0346 -0.150038,0.0311 -0.654814,-0.005 -0.873851,-0.0618 -0.226435,-0.0592 -0.489509,-0.20296 -0.745165,-0.40723 -0.0556,-0.0444 -0.06384,-0.045 -0.28575,-0.0201 -0.483072,0.0541 -0.548836,0.0627 -0.641252,0.0832 -0.05239,0.0117 -0.280987,0.0275 -0.508,0.0351 -0.273762,0.009 -0.446439,0.0246 -0.512797,0.0458 -0.06285,0.02 -0.169082,0.0305 -0.28575,0.0282 -0.213934,-0.004 -0.929262,0.0354 -0.97813,0.0541 -0.03636,0.0139 -1.047495,0.0588 -1.223958,0.0543 -0.06575,-0.002 -0.138082,0.011 -0.176544,0.0308 -0.04276,0.0221 -0.09178,0.0294 -0.142615,0.0213 -0.0426,-0.007 -0.125081,-0.004 -0.183289,0.007 -0.2858505,0.0521 -0.3636695,0.0688 -0.4084255,0.0877 -0.04871,0.0206 -0.151883,0.20923 -0.152284,0.27849 -1.06e-4,0.0196 -0.04545,0.12969 -0.100748,0.24457 -0.0553,0.11488 -0.113335,0.2395 -0.12897,0.27694 -0.01564,0.0374 -0.0808,0.11074 -0.144815,0.16289 -0.134628,0.10967 -0.236937,0.12564 -0.330972,0.0517 z m 0.517329,-1.63432 c 0.09939,-0.0813 0.161828,-0.17242 0.308279,-0.44979 0.05444,-0.10311 0.122812,-0.26956 0.190701,-0.46427 0.04032,-0.11565 0.09995,-0.26329 0.1325075,-0.32809 0.03256,-0.0648 0.08479,-0.18909 0.116081,-0.27621 0.03129,-0.0871 0.07431,-0.18713 0.09561,-0.22225 0.0213,-0.0351 0.04517,-0.0944 0.05305,-0.13165 0.0079,-0.0373 0.03289,-0.0914 0.05558,-0.12024 0.02269,-0.0288 0.07511,-0.14597 0.116478,-0.26028 0.04137,-0.11432 0.08703,-0.22213 0.101465,-0.23959 0.03808,-0.0461 0.198457,-0.38142 0.215117,-0.4497996 0.0078,-0.032 0.0073,-0.0582 -0.0012,-0.0582 -0.04082,0 -0.233947,0.1660296 -0.304984,0.2621896 -0.044,0.0596 -0.09643,0.12192 -0.116513,0.13859 -0.02009,0.0167 -0.05481,0.0662 -0.07717,0.10999 -0.02236,0.0438 -0.08356,0.1092 -0.136009,0.14529 -0.05245,0.0361 -0.109078,0.0921 -0.125845,0.12456 -0.01677,0.0324 -0.065349,0.10068 -0.1079625,0.15169 -0.04261,0.051 -0.13558,0.20738 -0.206595,0.3475 -0.114406,0.22575 -0.130608,0.27329 -0.142186,0.41725 -0.0117,0.14549 -0.02067,0.17127 -0.08574,0.24657 -0.110601,0.12798 -0.178835,0.25305 -0.228028,0.41797 -0.0561,0.18808 -0.110102,0.61655 -0.08584,0.68111 0.02795,0.0744 0.108344,0.0598 0.233144,-0.0423 z m 0.314969,-1.46156 c 0,-0.0879 0.106858,-0.14017 0.135243,-0.0662 0.02008,0.0523 -0.02515,0.11489 -0.08307,0.11489 -0.04033,0 -0.05217,-0.011 -0.05217,-0.0487 z m 9.7524795,1.29074 c 0.04369,-0.0387 0.110393,-0.0827 0.148228,-0.0978 0.03784,-0.0151 0.06879,-0.0407 0.06879,-0.0567 0,-0.0431 -0.100277,-0.036 -0.167356,0.0117 -0.03161,0.0225 -0.08219,0.0471 -0.112387,0.0547 -0.0302,0.008 -0.07631,0.0366 -0.102463,0.0644 l -0.04755,0.0506 0.05084,0.0203 c 0.07419,0.0297 0.07531,0.0293 0.161901,-0.0473 z m -2.874698,-0.15852 c 0.146222,-0.0731 0.259752,-0.16284 0.481889,-0.38103 0.14651,-0.14391 0.159174,-0.16351 0.180823,-0.27992 0.0272,-0.14627 0.0077,-0.26949 -0.07843,-0.49667 -0.07804,-0.20573 -0.217833,-0.34666 -0.455894,-0.4596 -0.252137,-0.11962 -0.372808,-0.13854 -0.697901,-0.10945 -0.221815,0.0199 -0.286841,0.0342 -0.39762,0.0875 -0.16875,0.0813 -0.187361,0.0974 -0.275911,0.23809 -0.04029,0.064 -0.111573,0.15633 -0.158404,0.2051 l -0.08515,0.0887 0.01426,0.15473 c 0.0078,0.0851 0.02765,0.20712 0.04402,0.27115 0.09022,0.353 0.143516,0.54243 0.171344,0.60904 l 0.03119,0.0747 0.328707,-0.012 c 0.327434,-0.0119 0.32893,-0.0118 0.386043,0.0402 0.05295,0.0482 0.06982,0.0514 0.220568,0.0426 0.126254,-0.007 0.192053,-0.0239 0.290467,-0.0731 z m -6.190373,-0.066 c 0.04685,-0.022 0.166137,-0.0755 0.265091,-0.11902 0.538454,-0.23656 0.64048,-0.28624 0.752345,-0.36635 0.06731,-0.0482 0.133457,-0.0876 0.146995,-0.0876 0.01354,0 0.04771,-0.0252 0.07593,-0.056 0.02822,-0.0308 0.128089,-0.0923 0.221924,-0.13672 0.280934,-0.13294 0.817332,-0.50211 1.078224,-0.74209 0.08149,-0.075 0.210079,-0.18293 0.28575,-0.23992 0.16643,-0.12536 0.431617,-0.39089 0.510093,-0.51075 0.03147,-0.0481 0.08337,-0.10522 0.115334,-0.127 0.116746,-0.0796 0.321787,-0.2857196 0.36078,-0.3627296 0.02202,-0.0435 0.07,-0.12191 0.106628,-0.1743 0.05778,-0.0826 0.116161,-0.18329 0.23326,-0.40217 0.01557,-0.0291 0.02837,-0.11262 0.02844,-0.1856 8.5e-5,-0.0868 0.01845,-0.18513 0.05305,-0.28415 0.07334,-0.20991 0.06984,-0.25398 -0.02646,-0.33376 -0.04366,-0.0362 -0.102042,-0.0715 -0.129746,-0.0786 -0.06715,-0.0171 -0.352935,0.0258 -0.690463,0.10368 -0.770569,0.17784 -0.957009,0.22957 -1.125868,0.3124 -0.09535,0.0468 -0.195882,0.085 -0.223398,0.085 -0.02752,0 -0.09509,0.0286 -0.150158,0.0635 -0.05507,0.0349 -0.106245,0.0635 -0.11372,0.0635 -0.03018,0 -0.258845,0.16615 -0.404508,0.29392 -0.154714,0.13571 -0.168847,0.15672 -0.336349,0.49983 -0.03978,0.0815 -0.161275,0.3291396 -0.269983,0.5503296 -0.252107,0.51297 -0.362348,0.74837 -0.38165,0.81492 -0.0084,0.0291 -0.04239,0.10089 -0.07545,0.15952 -0.03306,0.0586 -0.09346,0.19403 -0.134239,0.30088 -0.04077,0.10685 -0.08833,0.21604 -0.105679,0.24264 -0.01735,0.0266 -0.04074,0.0865 -0.05198,0.13304 -0.01124,0.0466 -0.06393,0.17992 -0.117088,0.29634 -0.05316,0.11641 -0.10313,0.24411 -0.111052,0.28376 l -0.0144,0.0721 0.07159,-0.0143 c 0.03937,-0.008 0.10992,-0.0323 0.156766,-0.0543 z m 8.626843,-0.13955 c 0.08142,-0.041 0.19786,-0.0941 0.258765,-0.1179 0.06881,-0.0269 0.14352,-0.0789 0.197326,-0.13712 0.09365,-0.10141 0.144649,-0.11276 0.338169,-0.0752 0.04735,0.009 0.19499,0.009 0.328084,-10e-4 0.133093,-0.01 0.358711,-0.0254 0.501377,-0.0347 0.220419,-0.0144 0.268118,-0.0239 0.3175,-0.0636 0.05911,-0.0475 0.115282,-0.0766 0.273907,-0.14192 0.04884,-0.0201 0.11013,-0.0593 0.136205,-0.087 0.02607,-0.0278 0.08452,-0.0605 0.129879,-0.0727 0.05511,-0.0148 0.09411,-0.0425 0.117553,-0.0833 0.03777,-0.0658 0.104809,-0.10543 0.179438,-0.10604 0.05784,-4.7e-4 0.327368,-0.28934 0.352842,-0.37816 0.0098,-0.0341 0.0082,-0.1347 -0.0035,-0.2276 -0.03043,-0.24038 -0.03273,-0.24915 -0.08186,-0.31161 -0.05078,-0.0645 -0.382533,-0.23004 -0.531821,-0.26529 -0.119376,-0.0282 -0.485153,-0.0308 -0.588586,-0.004 -0.04075,0.0105 -0.178858,0.0245 -0.306917,0.0312 -0.285519,0.0149 -0.431723,0.0627 -0.734858,0.24024 -0.119703,0.0701 -0.241454,0.13964 -0.270558,0.15449 -0.0291,0.0149 -0.09102,0.0576 -0.137584,0.0951 -0.04657,0.0374 -0.118376,0.0789 -0.159579,0.0921 -0.09947,0.032 -0.280763,0.22132 -0.438231,0.45767 -0.158464,0.23784 -0.166433,0.25379 -0.185109,0.37041 -0.0084,0.0524 -0.02775,0.14421 -0.04303,0.20405 -0.02004,0.0785 -0.02257,0.14922 -0.0091,0.254 0.01029,0.0799 0.01902,0.15106 0.0194,0.15822 3.81e-4,0.007 0.02043,0.0381 0.04456,0.0688 0.05874,0.0747 0.117549,0.0709 0.295715,-0.0188 z m 17.330784,2.02653 c -0.06194,-0.0409 -0.174568,-0.17444 -0.21874,-0.25946 -0.0549,-0.10567 -0.06928,-0.27451 -0.05109,-0.59983 0.0098,-0.17606 0.02229,-0.43474 0.02765,-0.57483 0.0056,-0.14672 0.02881,-0.33968 0.0547,-0.45509 0.02472,-0.1102 0.05344,-0.23846 0.06381,-0.28502 0.01037,-0.0466 0.02999,-0.18468 0.0436,-0.30692 0.01361,-0.12224 0.04704,-0.32226 0.07431,-0.4445 0.02726,-0.12224 0.05551,-0.26035 0.06276,-0.30692 0.0073,-0.0466 0.02645,-0.14681 0.04266,-0.22278 0.01621,-0.076 0.0401,-0.23789 0.05307,-0.35983 0.0489,-0.45952 0.04903,-0.4636 0.01439,-0.47689 -0.04938,-0.0189 -0.180577,0.0579 -0.332738,0.19478 -0.192879,0.17358 -0.335035,0.28697 -0.433836,0.34604 -0.04657,0.0278 -0.154974,0.10216 -0.240905,0.16515 -0.09526,0.0698 -0.214685,0.13441 -0.305991,0.16546 -0.08237,0.028 -0.173986,0.0738 -0.203598,0.10169 -0.0789,0.0744 -0.322629,0.20212 -0.450622,0.23619 -0.256582,0.0683 -0.54415,0.0185 -0.672844,-0.11643 -0.104127,-0.10921 -0.202713,-0.35551 -0.220929,-0.55196 -0.0081,-0.0873 -0.02752,-0.21114 -0.04317,-0.27517 -0.01565,-0.064 -0.03491,-0.18309 -0.0428,-0.26458 -0.0079,-0.0815 -0.02654,-0.2100796 -0.04142,-0.2857496 -0.01574,-0.08 -0.02449,-0.24473 -0.0209,-0.39351 0.01,-0.41362 -0.02332,-0.40114 -0.182592,0.0684 -0.06677,0.19685 -0.126169,0.33502 -0.158757,0.3693 -0.02864,0.0301 -0.08382,0.1356696 -0.122637,0.2345396 -0.03882,0.0989 -0.08508,0.2028 -0.102803,0.23097 -0.01773,0.0282 -0.04426,0.0893 -0.05897,0.13588 -0.0147,0.0466 -0.03875,0.10372 -0.05344,0.127 -0.01469,0.0233 -0.07416,0.1614 -0.132167,0.30692 -0.164732,0.41329 -0.273497,0.65467 -0.362471,0.80444 -0.04507,0.0759 -0.09846,0.19474 -0.118641,0.26417 -0.02019,0.0694 -0.05356,0.1503 -0.07417,0.17969 -0.02061,0.0294 -0.0435,0.0889 -0.05087,0.1322 -0.0074,0.0433 -0.03779,0.10774 -0.0676,0.14316 -0.05571,0.0662 -0.240455,0.51865 -0.240455,0.58888 0,0.0216 -0.02261,0.084 -0.05024,0.13853 -0.05875,0.11604 -0.0753,0.22009 -0.09541,0.59985 -0.01604,0.30295 -0.02871,0.33509 -0.158493,0.4022 -0.139292,0.072 -0.244973,-0.003 -0.344524,-0.24518 -0.06822,-0.16584 -0.06275,-0.4644 0.0144,-0.78544 0.03138,-0.13059 0.33996,-0.87708 0.45626,-1.10376 0.0397,-0.0774 0.07218,-0.158 0.07218,-0.17917 0,-0.0434 0.153571,-0.36867 0.216448,-0.45847 0.02259,-0.0323 0.05972,-0.11323 0.08251,-0.17992 0.02279,-0.0667 0.05469,-0.14984 0.07087,-0.18476 0.12399,-0.26754 0.177156,-0.38831 0.191014,-0.43392 0.01418,-0.0467 0.105658,-0.24457 0.308193,-0.6667496 0.06712,-0.1399 0.09915,-0.22435 0.192712,-0.508 0.03456,-0.10478 0.10914,-0.30988 0.165737,-0.45579 0.0566,-0.14591 0.109421,-0.29355 0.117388,-0.32808 0.008,-0.0345 0.0517,-0.14501 0.09719,-0.24548 0.04548,-0.10048 0.102809,-0.26222 0.12739,-0.35942 0.02897,-0.11456 0.07771,-0.23112 0.138576,-0.33138 0.05164,-0.0851 0.103634,-0.18263 0.115548,-0.21681 0.03083,-0.0884 0.150315,-0.1561 0.275629,-0.1561 0.07895,0 0.122267,0.0143 0.191998,0.0632 0.115443,0.081 0.142898,0.16153 0.161697,0.47418 0.008,0.13391 0.02241,0.25605 0.03191,0.27142 0.03758,0.0608 0.01372,0.4024 -0.03912,0.55988 -0.07708,0.22976 -0.09857,0.51051 -0.07324,0.95722 0.01188,0.20955 0.03128,0.4381496 0.04311,0.5079996 0.01183,0.0699 0.02605,0.16986 0.0316,0.22225 0.04993,0.47078 0.06295,0.50269 0.212903,0.52204 0.06917,0.009 0.122798,-0.0108 0.366768,-0.1349 0.157162,-0.0799 0.352425,-0.18919 0.433916,-0.24277 0.08149,-0.0536 0.181504,-0.10437 0.22225,-0.11286 0.113422,-0.0236 0.166235,-0.0573 0.343148,-0.21888 0.08978,-0.082 0.249322,-0.2169696 0.354542,-0.2999696 0.105221,-0.083 0.19131,-0.15961 0.19131,-0.17023 0,-0.0106 0.123224,-0.14203 0.273831,-0.29201 0.254491,-0.25342 0.396585,-0.41158 0.535602,-0.59616 0.03657,-0.0486 0.09041,-0.19286 0.154008,-0.41275 0.05378,-0.18595 0.124865,-0.39524 0.157969,-0.46509 0.03311,-0.0699 0.084,-0.18108 0.113098,-0.24717 0.0385,-0.0874 0.07655,-0.13581 0.139742,-0.17763 0.111674,-0.0739 0.232838,-0.27046 0.242659,-0.39365 0.0099,-0.12428 0.16346,-0.4305 0.270783,-0.54002 0.04769,-0.0487 0.137825,-0.12368 0.200315,-0.16672 0.103799,-0.0715 0.123106,-0.0773 0.223342,-0.0677 0.145638,0.014 0.228975,0.0993 0.227997,0.23327 -0.0013,0.1728 -0.04145,0.4014 -0.09145,0.52013 -0.02775,0.0659 -0.07065,0.19302 -0.09532,0.28248 -0.03221,0.11681 -0.08292,0.2213 -0.179938,0.37081 -0.0743,0.11449 -0.151365,0.22167 -0.171264,0.23819 -0.0199,0.0165 -0.05872,0.0745 -0.08627,0.12888 -0.02755,0.0544 -0.07286,0.1264 -0.100685,0.16008 -0.02782,0.0337 -0.07649,0.10938 -0.108139,0.16825 -0.03165,0.0589 -0.12856,0.20104 -0.215356,0.31595 -0.09496,0.12572 -0.166308,0.24327 -0.179146,0.29514 -0.02837,0.11464 -0.109667,0.28446 -0.210369,0.43944 -0.06139,0.0945 -0.08853,0.16481 -0.107362,0.27819 -0.01386,0.0835 -0.04793,0.2062296 -0.07571,0.2728196 -0.02778,0.0666 -0.05051,0.13982 -0.05051,0.16274 0,0.0229 -0.02269,0.11607 -0.05042,0.20701 -0.02773,0.0909 -0.06092,0.22726 -0.07375,0.30293 -0.04583,0.27039 -0.08743,0.47719 -0.107675,0.53535 -0.01132,0.0325 -0.04053,0.17062 -0.06492,0.30692 -0.02439,0.1363 -0.06215,0.30973 -0.08391,0.3854 -0.05042,0.17532 -0.08499,0.37033 -0.08499,0.47945 0,0.0469 -0.01385,0.13132 -0.03077,0.18755 -0.01692,0.0562 -0.02629,0.10948 -0.02081,0.11834 0.0055,0.009 -0.0047,0.1001 -0.02269,0.20276 -0.042,0.24014 -0.05035,0.93573 -0.01259,1.04881 0.0178,0.0533 0.05512,0.0982 0.114821,0.13823 0.102061,0.0684 0.129114,0.16283 0.06301,0.22007 -0.09577,0.0829 -0.297415,0.1054 -0.391116,0.0436 z M 4.1410085,14.171627 c -0.156188,-0.103 -0.178881,-0.36782 -0.05313,-0.62002 0.08906,-0.17861 0.151632,-0.34528 0.151632,-0.40387 0,-0.0267 0.02433,-0.0954 0.05407,-0.15268 0.02974,-0.0573 0.08583,-0.19462 0.124645,-0.30521 0.03882,-0.1106 0.108924,-0.27463 0.155788,-0.36452 0.04686,-0.0899 0.09173,-0.19467 0.09971,-0.23284 0.008,-0.0382 0.0528,-0.16464 0.09962,-0.28106 0.04681,-0.11641 0.112391,-0.29158 0.145723,-0.38926 0.03333,-0.0977 0.0788,-0.20843 0.10104,-0.24613 0.02224,-0.0377 0.08075,-0.18572 0.130014,-0.32897 0.04927,-0.14324 0.184926,-0.45635 0.301459,-0.69579 0.116533,-0.2394396 0.253276,-0.5574696 0.303874,-0.7067296 0.0506,-0.14926 0.111394,-0.29863 0.135104,-0.33193 0.02371,-0.0333 0.06724,-0.13445 0.09672,-0.22479 0.02949,-0.0903 0.09211,-0.25054 0.139145,-0.35599 0.04704,-0.10546 0.103691,-0.23248 0.125891,-0.28227 0.0222,-0.0498 0.04036,-0.1047 0.04036,-0.12203 0,-0.0173 0.03266,-0.0814 0.07258,-0.14231 0.03992,-0.0609 0.08363,-0.15306 0.09713,-0.20471 0.0135,-0.0516 0.05684,-0.14215 0.09631,-0.20109 0.149621,-0.22345 0.221888,-0.32018 0.269822,-0.36116 0.02723,-0.0233 0.07011,-0.0722 0.09527,-0.10878 0.02516,-0.0365 0.06867,-0.0722 0.09668,-0.0792 0.0638,-0.016 0.218541,0.0372 0.282313,0.0971 0.06968,0.0655 0.06656,0.22731 -0.0069,0.35543 -0.03002,0.0524 -0.0981,0.1905 -0.151279,0.30692 -0.05318,0.11642 -0.138043,0.26465 -0.188578,0.3294 -0.05054,0.0648 -0.09188,0.12823 -0.09188,0.14106 0,0.0362 -0.142308,0.40171 -0.220626,0.56671 -0.190051,0.40038 -0.221985,0.47206 -0.236161,0.53006 -0.02413,0.0987 -0.131111,0.36021 -0.246445,0.60235 -0.106932,0.2245096 -0.26667,0.5604896 -0.37738,0.7937496 -0.03315,0.0699 -0.08375,0.18415 -0.112436,0.254 -0.02869,0.0699 -0.08618,0.18338 -0.127766,0.25228 -0.04158,0.0689 -0.08175,0.15938 -0.08925,0.20108 -0.0075,0.0417 -0.05526,0.15531 -0.106124,0.25247 -0.05086,0.0972 -0.09248,0.19655 -0.09248,0.22087 0,0.0243 -0.03231,0.10675 -0.07179,0.18318 -0.03949,0.0764 -0.08687,0.19134 -0.105296,0.25537 -0.01843,0.064 -0.05735,0.16404 -0.0865,0.22225 -0.02915,0.0582 -0.07222,0.1487 -0.09571,0.20109 -0.02349,0.0524 -0.07248,0.14287 -0.108852,0.20108 -0.03637,0.0582 -0.09855,0.20585 -0.138157,0.32808 -0.03961,0.12224 -0.09561,0.2664 -0.124441,0.32037 -0.02883,0.054 -0.05242,0.12778 -0.05242,0.16404 0,0.0781 0.03782,0.0845 0.203011,0.0344 0.05715,-0.0173 0.164135,-0.0316 0.237749,-0.0318 0.116034,-1.9e-4 0.132933,0.005 0.127,0.0368 -0.0038,0.0204 -0.04494,0.0541 -0.09151,0.075 -0.104625,0.0469 -0.179107,0.0867 -0.362779,0.19385 -0.179332,0.10463 -0.338754,0.12401 -0.444809,0.0541 z m 0.961046,-0.36164 c -0.07754,-0.0452 -0.03025,-0.1683 0.08086,-0.21054 0.05467,-0.0208 0.1996,0.0121 0.1996,0.0453 0,0.0335 -0.190605,0.18632 -0.232833,0.18675 -0.0058,6e-5 -0.02725,-0.01 -0.04762,-0.0215 z m 0.458426,-0.29779 c -0.0083,-0.0134 0.0025,-0.0373 0.02393,-0.053 0.05047,-0.0369 0.07327,-0.0361 0.07327,0.002 0,0.0428 -0.07716,0.0829 -0.0972,0.0505 z m 0.181866,-0.14004 c 0,-0.0275 0.04765,-0.0685 0.07957,-0.0685 0.01582,0 0.02291,0.01 0.01575,0.0211 -0.01872,0.0303 -0.09532,0.0684 -0.09532,0.0474 z m 41.3861275,-0.2095 c -0.0424,-0.0171 -0.0311,-0.10903 0.0167,-0.13457 0.061,-0.0327 0.1262,-0.007 0.1262,0.0505 0,0.0796 -0.0626,0.11641 -0.14288,0.084 z m -5.29558,-4.3515996 c -0.0347,-0.0875 -0.0713,-0.41335 -0.0586,-0.52078 0.007,-0.0584 0.0573,-0.252 0.11206,-0.43031 0.0547,-0.17831 0.1115,-0.36707 0.12618,-0.41945 0.0462,-0.16477 0.20348,-0.59916 0.25296,-0.6985 0.0261,-0.0524 0.0638,-0.1524 0.0837,-0.22225 0.0436,-0.15269 0.17842,-0.4044 0.25521,-0.47655 0.0305,-0.0287 0.0931,-0.12847 0.13904,-0.22173 0.0879,-0.17851 0.25976,-0.37962 0.35547,-0.41601 0.03,-0.0114 0.10195,-0.0143 0.1598,-0.006 0.13208,0.0182 0.20089,0.0833 0.26272,0.24852 0.054,0.14439 0.0579,0.24728 0.013,0.34193 -0.0485,0.1023 -0.10917,0.12602 -0.28121,0.11003 -0.1264,-0.0118 -0.15355,-0.008 -0.19952,0.0283 -0.03,0.0236 -0.0593,0.0741 -0.0671,0.11567 -0.008,0.0406 -0.0897,0.22638 -0.18234,0.41285 -0.0927,0.18647 -0.16849,0.345 -0.16849,0.3523 0,0.022 -0.25344,0.60042 -0.3376,0.77045 -0.0432,0.0873 -0.0906,0.2159 -0.10532,0.28575 -0.0147,0.0698 -0.0632,0.2032 -0.10782,0.29633 -0.0446,0.0931 -0.0876,0.20743 -0.0955,0.254 -0.013,0.0762 -0.10028,0.24342 -0.12711,0.24342 -0.006,0 -0.0192,-0.0214 -0.0296,-0.0476 z m -13.694261,-0.84327 c -0.02803,-0.0112 -0.08759,-0.0535 -0.132353,-0.0939 -0.04476,-0.0404 -0.09511,-0.0735 -0.111879,-0.0735 -0.01677,0 -0.04486,-0.0205 -0.06243,-0.0456 -0.04137,-0.0591 -0.01357,-0.11369 0.07793,-0.15309 0.07351,-0.0317 0.19222,-0.14024 0.255869,-0.23403 0.02182,-0.0322 0.07256,-0.0722 0.112752,-0.089 0.06577,-0.0275 0.08072,-0.0267 0.14946,0.007 0.119181,0.0593 0.16378,0.13616 0.16378,0.28224 0,0.12257 -0.002,0.12677 -0.116417,0.24422 -0.102104,0.1048 -0.21815,0.18109 -0.269196,0.17695 -0.0091,-7.4e-4 -0.03949,-0.0105 -0.06752,-0.0217 z"
       id="path248" /></g></svg>
