"sex" "childs" "age" "educ"
"1" 2 2 61 12
"2" 2 1 32 20
"3" 1 1 35 20
"4" 2 0 26 20
"5" 2 0 25 12
"6" 1 5 59 10
"7" 1 3 46 10
"8" 2 4 NA 16
"9" 2 3 57 10
"10" 2 2 64 14
"11" 1 0 72 9
"12" 2 5 67 12
"13" 1 0 33 15
"14" 1 1 23 14
"15" 2 1 33 12
"16" 2 2 59 12
"17" 1 1 60 14
"18" 1 2 77 9
"19" 2 2 52 14
"20" 1 1 55 7
"21" 2 1 37 14
"22" 2 0 45 9
"23" 2 0 34 12
"24" 2 3 35 9
"25" 2 1 35 13
"26" 1 0 47 12
"27" 2 3 24 11
"28" 2 0 28 12
"29" 1 2 57 19
"30" 1 2 44 18
"31" 2 1 75 14
"32" 2 3 58 16
"33" 1 1 49 13
"34" 1 0 22 14
"35" 2 3 44 17
"36" 1 2 48 19
"37" 2 2 23 12
"38" 1 0 56 15
"39" 2 0 25 13
"40" 2 0 78 12
"41" 2 3 37 15
"42" 1 4 60 12
"43" 2 0 30 16
"44" 1 0 21 13
"45" 2 3 65 13
"46" 1 8 64 11
"47" 1 0 31 18
"48" 2 3 64 12
"49" 1 2 39 18
"50" 2 0 29 16
"51" 2 2 57 18
"52" 1 0 35 14
"53" 1 0 22 15
"54" 1 0 35 16
"55" 1 0 43 20
"56" 2 2 35 12
"57" 2 3 70 12
"58" 1 2 49 13
"59" 2 1 21 11
"60" 2 2 34 12
"61" 1 1 34 12
"62" 1 0 33 13
"63" 2 1 31 16
"64" 2 2 50 12
"65" 2 3 48 12
"66" 2 3 46 11
"67" 2 3 36 12
"68" 2 5 34 11
"69" 2 5 22 13
"70" 2 4 71 11
"71" 2 8 37 12
"72" 2 3 67 9
"73" 1 2 61 12
"74" 2 3 50 14
"75" 1 5 49 4
"76" 2 3 65 15
"77" 1 2 39 16
"78" 2 0 80 14
"79" 2 1 47 15
"80" 2 3 61 12
"81" 2 0 54 14
"82" 2 0 28 16
"83" 1 0 59 16
"84" 1 0 25 16
"85" 2 4 77 11
"86" 2 0 33 18
"87" 1 0 43 16
"88" 1 1 23 12
"89" 1 0 20 11
"90" 2 4 28 9
"91" 2 2 36 10
"92" 2 2 36 12
"93" 2 4 30 13
"94" 1 5 44 15
"95" 2 0 37 13
"96" 2 3 35 12
"97" 2 3 38 12
"98" 2 0 24 12
"99" 2 2 38 8
"100" 2 1 58 14
"101" 2 3 31 9
"102" 2 2 71 8
"103" 1 2 54 12
"104" 2 2 68 12
"105" 1 2 33 10
"106" 1 0 30 16
"107" 1 8 71 12
"108" 2 4 22 11
"109" 2 5 72 12
"110" 2 1 40 14
"111" 1 4 43 13
"112" 1 4 51 12
"113" 1 0 31 13
"114" 2 2 56 16
"115" 2 1 85 9
"116" 1 3 30 11
"117" 2 3 34 16
"118" 1 4 35 15
"119" 1 0 25 16
"120" 1 0 35 16
"121" 2 4 42 16
"122" 2 0 75 12
"123" 2 0 29 16
"124" 1 4 60 12
"125" 2 1 36 15
"126" 2 1 32 19
"127" 2 1 34 12
"128" 2 3 47 14
"129" 2 3 50 14
"130" 2 3 46 19
"131" 1 0 41 14
"132" 2 0 35 16
"133" 2 3 33 12
"134" 2 0 34 12
"135" 2 2 36 10
"136" 1 0 26 8
"137" 1 7 59 10
"138" 1 7 41 13
"139" 2 4 44 16
"140" 2 1 74 12
"141" 2 1 85 11
"142" 2 2 71 12
"143" 2 0 27 17
"144" 2 7 69 NA
"145" 2 1 20 11
"146" 2 7 66 14
"147" 1 3 40 13
"148" 2 2 35 16
"149" 2 1 33 16
"150" 1 2 43 15
"151" 2 3 35 13
"152" 1 0 27 12
"153" 1 2 24 12
"154" 1 1 64 14
"155" 2 0 70 18
"156" 1 0 42 12
"157" 2 2 53 10
"158" 2 0 36 18
"159" 1 4 75 12
"160" 2 1 42 14
"161" 2 0 21 12
"162" 2 2 22 10
"163" 2 2 42 13
"164" 2 2 52 14
"165" 1 4 63 14
"166" 2 6 56 17
"167" 1 0 38 19
"168" 2 0 41 13
"169" 2 3 70 11
"170" 1 1 20 9
"171" 1 1 41 15
"172" 2 5 69 12
"173" 1 0 22 11
"174" 2 2 75 10
"175" 2 3 73 12
"176" 1 2 70 12
"177" 1 2 32 12
"178" 1 0 36 12
"179" 2 3 28 9
"180" 2 1 44 14
"181" 2 0 32 14
"182" 1 4 58 14
"183" 2 0 54 16
"184" 2 1 22 11
"185" 2 6 27 9
"186" 2 0 28 16
"187" 2 0 31 16
"188" 1 0 18 12
"189" 2 0 33 16
"190" 2 0 27 10
"191" 1 4 38 13
"192" 2 2 37 12
"193" 2 3 39 12
"194" 2 4 34 9
"195" 1 2 38 11
"196" 2 2 47 18
"197" 1 1 47 16
"198" 2 3 61 16
"199" 1 3 71 20
"200" 2 0 21 14
"201" 2 0 21 14
"202" 1 0 21 13
"203" 1 0 21 14
"204" 1 0 26 15
"205" 2 0 48 17
"206" 2 0 22 15
"207" 1 3 74 16
"208" 2 0 21 14
"209" 2 2 50 18
"210" 2 0 26 16
"211" 1 2 40 9
"212" 1 0 47 16
"213" 1 1 65 20
"214" 1 1 39 18
"215" 1 0 37 20
"216" 2 0 29 17
"217" 1 0 31 18
"218" 1 0 28 16
"219" 2 0 32 20
"220" 2 1 85 10
"221" 2 0 33 16
"222" 1 0 47 20
"223" 2 0 49 12
"224" 2 2 68 12
"225" 1 0 22 15
"226" 1 0 33 19
"227" 2 2 72 12
"228" 2 0 29 18
"229" 2 0 21 13
"230" 2 2 26 15
"231" 2 2 36 12
"232" 2 1 22 12
"233" 1 5 49 12
"234" 2 1 35 13
"235" 1 4 68 14
"236" 1 1 36 18
"237" 1 0 28 12
"238" 2 0 25 17
"239" 2 8 51 10
"240" 2 2 40 17
"241" 2 0 26 16
"242" 1 0 24 12
"243" 2 0 20 12
"244" 1 0 23 5
"245" 1 0 23 13
"246" 2 4 36 9
"247" 1 2 41 10
"248" 1 4 83 11
"249" 1 2 70 12
"250" 2 4 28 11
"251" 1 0 25 16
"252" 1 1 43 8
"253" 2 2 39 16
"254" 1 0 27 12
"255" 2 3 29 11
"256" 1 2 40 17
"257" 2 2 27 9
"258" 2 3 40 16
"259" 1 0 21 13
"260" 1 2 32 14
"261" 1 0 53 16
"262" 2 1 39 13
"263" 1 1 30 16
"264" 1 3 47 14
"265" 1 2 32 19
"266" 1 4 48 19
"267" 2 2 46 9
"268" 2 3 49 14
"269" 2 3 73 12
"270" 2 0 24 12
"271" 1 0 84 8
"272" 1 0 25 12
"273" 2 4 27 11
"274" 2 0 40 10
"275" 1 2 27 12
"276" 1 3 43 14
"277" 1 3 65 16
"278" 1 3 35 15
"279" 1 0 25 16
"280" 2 3 58 11
"281" 2 5 55 12
"282" 1 0 53 9
"283" 1 4 70 12
"284" 1 0 35 16
"285" 2 4 47 12
"286" 2 7 61 15
"287" 2 2 35 17
"288" 2 0 34 16
"289" 2 3 70 12
"290" 1 2 67 12
"291" 2 2 35 17
"292" 1 4 43 12
"293" 1 3 73 14
"294" 2 2 35 15
"295" 2 1 89 10
"296" 2 3 39 13
"297" 2 0 33 14
"298" 1 2 48 12
"299" 2 3 31 12
"300" 1 5 67 11
"301" 1 1 30 12
"302" 1 4 30 12
"303" 2 1 71 8
"304" 1 0 29 16
"305" 2 0 26 13
"306" 2 0 23 16
"307" 2 0 21 14
"308" 1 3 87 8
"309" 2 2 30 14
"310" 2 4 83 8
"311" 2 4 80 8
"312" 2 3 89 10
"313" 2 3 53 12
"314" 2 3 62 12
"315" 2 4 59 15
"316" 2 3 35 16
"317" 2 2 36 19
"318" 1 1 42 14
"319" 1 0 34 17
"320" 2 1 33 12
"321" 1 1 42 12
"322" 1 2 74 14
"323" 2 1 37 12
"324" 1 3 50 17
"325" 2 5 52 12
"326" 2 1 71 10
"327" 2 2 34 14
"328" 2 2 41 17
"329" 1 4 53 12
"330" 1 0 43 14
"331" 1 1 30 13
"332" 2 4 57 12
"333" 2 0 57 12
"334" 1 2 39 13
"335" 1 2 19 9
"336" 2 0 74 9
"337" 1 2 73 14
"338" 1 0 27 14
"339" 2 1 56 16
"340" 2 5 66 13
"341" 2 0 73 12
"342" 2 0 41 16
"343" 1 3 59 15
"344" 2 0 36 16
"345" 1 2 52 16
"346" 2 2 89 14
"347" 1 0 40 14
"348" 1 4 29 17
"349" 1 0 24 16
"350" 1 2 40 14
"351" 2 3 46 12
"352" 2 0 36 12
"353" 2 3 39 16
"354" 1 2 38 20
"355" 1 3 60 16
"356" 2 4 64 13
"357" 2 1 43 16
"358" 2 0 28 16
"359" 1 3 69 13
"360" 2 2 52 14
"361" 1 2 36 16
"362" 1 2 50 16
"363" 2 1 36 16
"364" 1 4 76 12
"365" 2 2 45 12
"366" 2 2 48 12
"367" 1 3 52 12
"368" 2 1 43 12
"369" 2 1 30 12
"370" 2 0 73 12
"371" 2 2 69 12
"372" 2 0 72 18
"373" 2 1 83 14
"374" 2 4 54 10
"375" 2 2 39 13
"376" 1 0 29 15
"377" 1 4 76 12
"378" 2 3 56 12
"379" 2 2 28 12
"380" 1 2 34 14
"381" 1 0 25 14
"382" 2 3 41 13
"383" 1 0 32 12
"384" 1 3 55 17
"385" 1 1 35 9
"386" 1 1 68 12
"387" 2 1 76 15
"388" 2 3 36 12
"389" 1 0 31 16
"390" 2 2 36 12
"391" 2 4 74 8
"392" 2 3 49 12
"393" 2 2 45 16
"394" 2 2 42 12
"395" 1 0 71 7
"396" 2 0 40 12
"397" 1 2 39 18
"398" 2 2 68 11
"399" 2 4 73 8
"400" 1 0 32 16
"401" 1 0 25 10
"402" 2 0 30 12
"403" 2 2 40 12
"404" 2 0 42 16
"405" 2 0 20 13
"406" 1 2 37 13
"407" 2 0 28 12
"408" 1 0 23 16
"409" 2 0 37 12
"410" 2 0 22 12
"411" 1 1 48 12
"412" 1 2 74 11
"413" 1 1 40 20
"414" 2 1 80 14
"415" 2 4 35 12
"416" 2 2 31 13
"417" 2 5 32 12
"418" 1 0 23 12
"419" 2 3 30 12
"420" 2 7 32 10
"421" 2 0 63 12
"422" 2 2 29 12
"423" 2 0 77 9
"424" 1 1 32 20
"425" 2 3 31 12
"426" 2 3 84 12
"427" 2 1 21 12
"428" 1 0 29 13
"429" 1 2 33 14
"430" 2 2 34 10
"431" 2 1 30 12
"432" 1 1 82 14
"433" 1 1 68 16
"434" 2 2 44 16
"435" 2 1 76 13
"436" 2 4 30 12
"437" 2 1 65 16
"438" 2 2 31 14
"439" 2 2 37 12
"440" 1 1 26 12
"441" 1 1 78 8
"442" 1 0 31 17
"443" 2 1 50 20
"444" 1 0 24 13
"445" 2 4 49 15
"446" 2 2 37 15
"447" 2 2 44 18
"448" 1 2 44 17
"449" 2 3 35 14
"450" 2 9 74 NA
"451" 1 2 72 12
"452" 2 2 33 12
"453" 1 0 25 15
"454" 1 2 77 20
"455" 2 2 44 16
"456" 2 0 42 14
"457" 1 3 43 12
"458" 2 3 36 12
"459" 1 3 43 12
"460" 1 0 53 20
"461" 1 0 41 12
"462" 2 4 53 12
"463" 2 0 62 17
"464" 2 2 55 9
"465" 2 3 62 12
"466" 2 3 72 12
"467" 1 0 26 12
"468" 1 3 38 12
"469" 2 1 42 12
"470" 1 2 27 14
"471" 1 2 42 12
"472" 1 3 25 12
"473" 2 4 48 12
"474" 1 2 47 10
"475" 2 0 19 10
"476" 2 1 28 12
"477" 1 3 65 12
"478" 2 1 67 12
"479" 2 2 60 12
"480" 2 0 37 12
"481" 1 3 67 12
"482" 2 0 19 10
"483" 2 1 33 14
"484" 1 2 44 8
"485" 2 1 42 16
"486" 1 2 48 19
"487" 1 0 67 17
"488" 1 2 37 16
"489" 2 2 41 16
"490" 1 4 52 16
"491" 1 2 38 16
"492" 2 2 43 16
"493" 2 2 31 12
"494" 2 1 35 12
"495" 1 1 34 16
"496" 1 2 34 12
"497" 1 1 29 12
"498" 1 0 19 11
"499" 2 2 31 12
"500" 2 0 27 16
"501" 2 3 49 12
"502" 1 1 23 12
"503" 2 3 64 11
"504" 2 2 37 12
"505" 1 0 40 12
"506" 2 2 19 11
"507" 2 2 31 12
"508" 1 2 65 12
"509" 2 0 33 13
"510" 2 0 29 11
"511" 1 6 68 13
"512" 1 2 62 11
"513" 2 2 65 7
"514" 2 0 76 10
"515" 1 3 41 13
"516" 2 1 34 18
"517" 1 0 32 14
"518" 1 0 26 15
"519" 2 3 36 18
"520" 1 0 34 15
"521" 1 2 37 16
"522" 1 0 32 15
"523" 2 0 27 16
"524" 2 1 30 12
"525" 2 1 39 12
"526" 1 0 33 11
"527" 2 5 61 10
"528" 2 3 79 10
"529" 2 4 71 7
"530" 2 4 73 7
"531" 1 1 26 11
"532" 1 0 20 10
"533" 2 3 39 12
"534" 2 2 39 14
"535" 2 2 33 11
"536" 2 3 26 12
"537" 1 0 26 10
"538" 2 5 59 12
"539" 2 1 28 13
"540" 2 2 61 12
"541" 1 1 79 11
"542" 1 0 21 13
"543" 2 3 57 12
"544" 2 3 45 12
"545" 1 0 31 12
"546" 2 4 64 10
"547" 1 0 28 17
"548" 1 0 22 14
"549" 1 3 36 17
"550" 2 1 78 12
"551" 2 2 63 11
"552" 1 0 62 9
"553" 2 1 63 12
"554" 2 0 48 16
"555" 2 2 47 19
"556" 1 0 32 16
"557" 2 1 73 12
"558" 2 0 30 12
"559" 2 3 54 12
"560" 1 2 51 12
"561" 1 2 74 18
"562" 1 2 42 16
"563" 1 1 48 12
"564" 1 3 47 16
"565" 2 3 37 9
"566" 1 7 51 17
"567" 2 1 37 12
"568" 2 2 69 12
"569" 2 4 89 16
"570" 1 2 63 9
"571" 2 2 62 12
"572" 2 0 48 12
"573" 1 2 81 12
"574" 2 3 30 14
"575" 1 0 20 12
"576" 2 1 24 13
"577" 2 1 40 10
"578" 2 0 29 15
"579" 2 1 65 16
"580" 1 2 31 12
"581" 2 5 60 12
"582" 1 0 35 16
"583" 2 2 61 13
"584" 2 2 32 16
"585" 2 3 40 12
"586" 1 3 38 14
"587" 1 2 40 12
"588" 2 2 32 12
"589" 1 2 32 12
"590" 1 1 33 12
"591" 1 0 39 20
"592" 2 4 58 20
"593" 1 2 47 16
"594" 1 1 50 14
"595" 1 2 52 15
"596" 1 4 62 3
"597" 2 3 56 11
"598" 2 2 43 13
"599" 1 0 24 16
"600" 1 3 31 9
"601" 1 2 74 12
"602" 1 0 30 12
"603" 2 3 44 16
"604" 1 1 31 20
"605" 1 2 40 18
"606" 1 2 37 13
"607" 2 2 44 13
"608" 1 2 41 15
"609" 1 1 46 18
"610" 2 5 50 10
"611" 1 3 57 18
"612" 1 0 75 16
"613" 2 4 33 14
"614" 2 0 61 12
"615" 2 2 29 14
"616" 2 2 45 12
"617" 1 6 61 8
"618" 2 5 81 8
"619" 2 1 38 12
"620" 1 5 89 4
"621" 2 4 81 5
"622" 1 0 74 8
"623" 2 2 30 12
"624" 2 3 39 12
"625" 1 7 56 16
"626" 2 5 42 16
"627" 1 1 58 10
"628" 1 0 30 12
"629" 2 0 84 12
"630" 2 3 58 12
"631" 2 4 31 14
"632" 1 2 28 12
"633" 2 7 71 9
"634" 1 2 40 20
"635" 2 3 31 12
"636" 1 0 49 13
"637" 1 0 22 11
"638" 2 0 38 12
"639" 2 0 30 13
"640" 2 3 55 12
"641" 2 0 37 13
"642" 1 0 21 14
"643" 2 4 44 12
"644" 2 3 47 12
"645" 2 0 32 18
"646" 1 0 32 16
"647" 1 1 25 17
"648" 2 0 29 12
"649" 2 2 47 18
"650" 1 0 32 12
"651" 1 0 44 16
"652" 1 0 34 20
"653" 1 1 38 14
"654" 2 2 42 12
"655" 2 0 22 15
"656" 1 2 30 12
"657" 2 0 23 15
"658" 1 0 24 16
"659" 1 4 68 16
"660" 1 0 23 16
"661" 1 0 39 20
"662" 2 0 23 14
"663" 2 4 52 12
"664" 2 6 67 12
"665" 2 2 35 17
"666" 1 1 29 10
"667" 2 5 79 12
"668" 2 1 38 12
"669" 2 1 32 12
"670" 2 0 82 8
"671" 2 6 88 12
"672" 2 2 55 14
"673" 1 0 57 15
"674" 2 2 37 13
"675" 1 2 26 12
"676" 1 2 47 16
"677" 1 1 40 16
"678" 1 3 67 10
"679" 2 1 18 10
"680" 1 2 44 9
"681" 1 0 42 16
"682" 1 2 69 20
"683" 1 0 37 16
"684" 1 2 70 17
"685" 1 0 71 20
"686" 2 4 73 8
"687" 1 1 58 10
"688" 2 3 72 4
"689" 2 1 48 13
"690" 1 0 49 12
"691" 2 2 66 7
"692" 2 3 64 10
"693" 2 5 72 5
"694" 2 8 35 8
"695" 1 3 34 4
"696" 2 2 65 8
"697" 2 2 58 11
"698" 1 4 54 11
"699" 2 8 66 12
"700" 2 3 40 15
"701" 2 2 43 14
"702" 1 2 72 6
"703" 2 2 28 15
"704" 2 3 32 12
"705" 2 1 31 14
"706" 1 2 44 12
"707" 1 1 39 12
"708" 1 2 41 12
"709" 1 1 32 15
"710" 1 0 23 16
"711" 2 1 20 12
"712" 1 1 30 14
"713" 1 5 58 8
"714" 2 1 20 12
"715" 1 0 28 12
"716" 2 2 48 14
"717" 2 7 50 14
"718" 1 1 55 18
"719" 1 4 60 12
"720" 2 3 35 16
"721" 2 6 42 13
"722" 2 4 29 16
"723" 2 1 37 12
"724" 1 2 37 11
"725" 2 0 42 12
"726" 1 0 28 12
"727" 2 1 41 12
"728" 1 0 41 16
"729" 2 2 81 14
"730" 1 4 68 16
"731" 2 2 62 18
"732" 1 2 48 16
"733" 1 8 47 11
"734" 2 2 31 12
"735" 2 4 63 0
"736" 2 1 50 12
"737" 2 2 22 8
"738" 2 3 67 14
"739" 1 0 35 14
"740" 1 3 35 9
"741" 2 2 48 19
"742" 2 4 67 16
"743" 2 3 26 10
"744" 1 1 24 12
"745" 1 2 39 16
"746" 2 2 63 12
"747" 1 6 82 14
"748" 1 2 74 16
"749" 2 1 38 13
"750" 2 2 37 16
"751" 2 2 47 14
"752" 2 2 38 12
"753" 1 1 41 12
"754" 1 1 30 12
"755" 2 2 64 13
"756" 2 0 28 17
"757" 2 1 41 20
"758" 1 2 33 14
"759" 1 2 52 12
"760" 2 2 26 12
"761" 1 2 38 15
"762" 2 4 56 11
"763" 1 9 45 NA
"764" 2 9 32 NA
"765" 2 0 82 3
"766" 2 4 26 13
"767" 1 4 29 12
"768" 1 3 70 12
"769" 1 3 70 12
"770" 2 0 84 8
"771" 2 2 24 8
"772" 1 7 62 8
"773" 1 1 45 13
"774" 2 4 68 10
"775" 2 0 19 12
"776" 2 8 67 11
"777" 2 1 24 12
"778" 1 3 38 12
"779" 1 1 41 14
"780" 1 5 33 15
"781" 1 2 35 17
"782" 2 1 26 16
"783" 1 2 36 12
"784" 1 4 73 19
"785" 1 0 75 12
"786" 1 0 25 16
"787" 2 1 66 12
"788" 1 4 43 12
"789" 1 2 46 16
"790" 2 2 77 10
"791" 1 2 72 12
"792" 2 1 27 12
"793" 1 0 36 15
"794" 1 6 62 11
"795" 1 3 40 12
"796" 1 1 42 12
"797" 2 4 61 7
"798" 1 2 80 15
"799" 2 2 63 14
"800" 2 2 31 14
"801" 1 1 33 9
"802" 2 1 20 7
"803" 2 1 21 13
"804" 2 3 67 6
"805" 1 3 49 16
"806" 2 4 37 9
"807" 1 0 21 11
"808" 1 1 55 10
"809" 2 1 23 15
"810" 2 1 80 13
"811" 2 2 76 8
"812" 2 3 81 8
"813" 1 0 31 13
"814" 1 3 24 12
"815" 2 8 49 10
"816" 2 0 21 12
"817" 1 0 20 12
"818" 2 0 21 15
"819" 2 0 65 7
"820" 1 1 27 12
"821" 2 0 53 3
"822" 2 3 62 8
"823" 1 0 26 9
"824" 2 2 43 9
"825" 2 7 78 8
"826" 2 4 50 9
"827" 1 2 29 10
"828" 2 8 89 0
"829" 2 2 42 12
"830" 2 3 76 8
"831" 1 0 21 13
"832" 2 0 69 12
"833" 2 0 44 10
"834" 1 5 50 3
"835" 1 0 73 7
"836" 2 4 80 7
"837" 2 6 80 8
"838" 2 4 82 10
"839" 2 5 42 12
"840" 2 2 25 9
"841" 2 1 24 10
"842" 2 2 24 12
"843" 2 2 82 9
"844" 2 3 70 9
"845" 1 3 49 12
"846" 2 0 36 12
"847" 2 0 41 16
"848" 2 2 36 12
"849" 2 3 38 12
"850" 1 3 71 12
"851" 1 3 53 12
"852" 2 0 22 13
"853" 1 0 27 13
"854" 2 3 47 12
"855" 2 1 42 12
"856" 2 0 49 17
"857" 1 2 42 17
"858" 1 0 52 12
"859" 1 0 35 15
"860" 1 1 28 12
"861" 1 1 47 17
"862" 2 0 57 9
"863" 2 5 54 13
"864" 1 1 31 10
"865" 1 2 46 8
"866" 2 0 32 18
"867" 1 0 40 12
"868" 2 2 35 16
"869" 2 1 71 14
"870" 2 0 25 16
"871" 1 0 40 15
"872" 2 2 39 16
"873" 2 2 30 14
"874" 2 0 33 17
"875" 1 0 25 16
"876" 2 0 27 20
"877" 2 5 72 13
"878" 2 4 38 12
"879" 2 0 27 15
"880" 2 0 37 14
"881" 1 5 56 13
"882" 1 2 30 14
"883" 2 5 66 11
"884" 2 0 26 16
"885" 2 0 36 14
"886" 2 0 81 7
"887" 2 0 68 12
"888" 2 2 45 12
"889" 1 1 44 11
"890" 2 2 32 12
"891" 2 3 35 12
"892" 1 0 70 12
"893" 2 0 46 16
"894" 1 0 21 12
"895" 1 4 44 13
"896" 1 0 48 14
"897" 2 2 40 6
"898" 1 2 39 16
"899" 2 0 31 20
"900" 1 0 39 16
"901" 1 0 33 16
"902" 2 0 28 14
"903" 1 5 62 15
"904" 1 0 21 12
"905" 1 2 38 14
"906" 2 6 67 10
"907" 1 1 62 14
"908" 1 3 34 12
"909" 2 4 59 12
"910" 1 2 72 6
"911" 1 0 72 8
"912" 1 2 35 11
"913" 1 1 41 12
"914" 2 1 35 19
"915" 1 0 69 12
"916" 2 0 38 16
"917" 1 0 39 16
"918" 1 5 75 11
"919" 2 1 76 12
"920" 2 0 35 13
"921" 1 1 35 NA
"922" 1 2 75 14
"923" 2 1 45 16
"924" 1 0 54 10
"925" 1 0 51 16
"926" 1 3 52 14
"927" 1 0 61 14
"928" 1 0 29 13
"929" 2 1 34 13
"930" 2 0 27 13
"931" 2 4 59 14
"932" 2 2 44 18
"933" 2 2 32 14
"934" 2 2 59 14
"935" 1 0 40 16
"936" 1 0 37 16
"937" 2 2 34 12
"938" 1 1 74 9
"939" 2 2 46 14
"940" 2 1 34 16
"941" 2 1 77 12
"942" 2 0 41 18
"943" 1 0 31 12
"944" 2 0 26 18
"945" 1 5 61 17
"946" 1 2 63 17
"947" 2 3 77 12
"948" 1 0 33 14
"949" 2 4 60 14
"950" 1 4 50 15
"951" 2 2 38 17
"952" 2 6 52 12
"953" 2 3 49 11
"954" 2 1 38 13
"955" 2 0 43 12
"956" 1 2 39 11
"957" 2 0 45 16
"958" 1 1 40 14
"959" 1 4 73 8
"960" 2 2 41 19
"961" 2 2 40 18
"962" 1 3 64 12
"963" 1 0 38 18
"964" 2 2 87 16
"965" 2 3 41 12
"966" 2 0 42 13
"967" 2 0 20 13
"968" 1 7 63 18
"969" 2 2 34 14
"970" 1 0 23 13
"971" 1 1 69 17
"972" 2 6 68 11
"973" 2 3 40 11
"974" 2 0 69 12
"975" 2 1 40 13
"976" 1 6 52 8
"977" 2 0 41 13
"978" 2 0 19 11
"979" 1 2 85 10
"980" 1 3 38 12
"981" 2 4 54 12
"982" 1 2 82 13
"983" 2 0 81 17
"984" 1 2 55 18
"985" 1 0 72 16
"986" 2 2 69 11
"987" 2 1 80 16
"988" 2 2 69 12
"989" 2 2 64 10
"990" 1 0 35 14
"991" 2 3 76 14
"992" 1 0 22 15
"993" 2 0 26 18
"994" 1 0 26 14
"995" 2 2 68 13
"996" 1 2 45 12
"997" 2 0 73 14
"998" 1 1 66 18
"999" 2 0 26 16
"1000" 1 0 33 14
"1001" 2 3 38 12
"1002" 1 2 36 14
"1003" 1 0 36 16
"1004" 2 6 44 11
"1005" 2 2 23 12
"1006" 1 6 45 14
"1007" 2 0 21 12
"1008" 2 2 43 14
"1009" 2 2 45 13
"1010" 2 2 40 16
"1011" 1 1 21 13
"1012" 1 1 45 12
"1013" 2 2 89 14
"1014" 2 4 43 13
"1015" 2 2 34 14
"1016" 1 2 63 18
"1017" 1 2 73 18
"1018" 2 2 51 13
"1019" 2 0 25 16
"1020" 2 1 38 16
"1021" 2 5 57 16
"1022" 1 0 64 14
"1023" 2 2 58 13
"1024" 1 3 35 20
"1025" 1 2 54 14
"1026" 1 2 57 12
"1027" 2 3 40 16
"1028" 1 0 21 12
"1029" 2 0 19 12
"1030" 1 0 23 14
"1031" 1 1 43 18
"1032" 2 0 21 14
"1033" 1 0 23 16
"1034" 1 0 21 13
"1035" 2 2 40 13
"1036" 1 2 63 12
"1037" 1 0 23 16
"1038" 1 1 82 10
"1039" 2 4 31 8
"1040" 2 2 28 14
"1041" 2 2 28 8
"1042" 2 3 35 12
"1043" 2 2 38 12
"1044" 2 3 45 16
"1045" 1 2 54 14
"1046" 1 5 43 13
"1047" 2 2 35 16
"1048" 2 1 31 14
"1049" 2 0 48 16
"1050" 1 1 44 16
"1051" 2 2 22 10
"1052" 2 4 57 11
"1053" 2 1 19 11
"1054" 1 0 78 6
"1055" 2 1 20 12
"1056" 2 1 35 12
"1057" 2 0 71 12
"1058" 2 2 49 19
"1059" 2 1 72 12
"1060" 2 2 46 12
"1061" 1 2 69 14
"1062" 2 3 25 9
"1063" 1 0 22 12
"1064" 2 1 53 13
"1065" 1 0 39 14
"1066" 1 2 41 14
"1067" 1 4 58 12
"1068" 2 0 21 14
"1069" 1 0 61 12
"1070" 1 0 47 16
"1071" 1 0 37 15
"1072" 1 0 25 14
"1073" 2 0 24 13
"1074" 2 4 28 7
"1075" 2 4 35 12
"1076" 2 0 85 12
"1077" 2 3 79 14
"1078" 2 4 77 12
"1079" 1 2 83 8
"1080" 2 2 65 13
"1081" 1 2 50 18
"1082" 2 2 32 12
"1083" 2 1 25 12
"1084" 1 4 60 13
"1085" 2 7 57 16
"1086" 1 0 20 13
"1087" 1 3 48 12
"1088" 1 8 53 19
"1089" 2 6 52 16
"1090" 2 5 35 14
"1091" 1 2 28 15
"1092" 1 1 25 16
"1093" 2 0 25 15
"1094" 1 0 25 14
"1095" 2 0 21 15
"1096" 2 0 24 16
"1097" 2 1 27 17
"1098" 2 1 26 16
"1099" 1 3 38 14
"1100" 1 1 27 16
"1101" 2 4 66 13
"1102" 2 7 55 12
"1103" 2 0 33 16
"1104" 1 2 63 16
"1105" 2 9 NA NA
"1106" 1 1 54 12
"1107" 2 1 51 16
"1108" 2 2 29 15
"1109" 2 1 51 15
"1110" 2 3 84 8
"1111" 2 2 43 15
"1112" 1 2 44 12
"1113" 1 1 30 12
"1114" 1 5 81 7
"1115" 2 3 74 8
"1116" 1 0 30 12
"1117" 2 2 42 12
"1118" 1 0 21 10
"1119" 1 7 62 8
"1120" 2 0 18 11
"1121" 1 3 44 17
"1122" 1 3 38 18
"1123" 2 2 54 12
"1124" 2 3 31 13
"1125" 1 2 35 11
"1126" 2 2 38 12
"1127" 1 2 52 12
"1128" 2 2 40 13
"1129" 2 3 55 11
"1130" 1 9 34 12
"1131" 2 1 68 12
"1132" 2 1 29 12
"1133" 1 2 38 12
"1134" 2 1 27 11
"1135" 1 4 55 12
"1136" 2 3 63 9
"1137" 1 1 43 15
"1138" 2 2 65 12
"1139" 2 0 80 14
"1140" 1 0 25 14
"1141" 2 4 60 12
"1142" 2 1 21 12
"1143" 2 1 23 10
"1144" 2 8 58 9
"1145" 2 2 36 11
"1146" 1 4 53 12
"1147" 1 3 30 15
"1148" 2 0 28 16
"1149" 2 4 72 6
"1150" 2 1 26 14
"1151" 1 2 39 13
"1152" 1 0 23 12
"1153" 1 0 26 14
"1154" 2 0 45 15
"1155" 1 2 62 16
"1156" 2 1 80 9
"1157" 1 2 74 12
"1158" 2 1 24 12
"1159" 1 2 46 12
"1160" 1 2 32 14
"1161" 1 3 50 12
"1162" 1 0 38 16
"1163" 1 2 40 12
"1164" 1 2 51 11
"1165" 1 4 59 8
"1166" 2 3 57 12
"1167" 2 1 27 12
"1168" 1 0 23 13
"1169" 2 0 38 16
"1170" 1 2 28 14
"1171" 2 3 52 13
"1172" 1 4 52 11
"1173" 1 1 39 12
"1174" 2 2 41 14
"1175" 2 4 55 14
"1176" 2 2 36 18
"1177" 2 1 33 14
"1178" 2 2 67 13
"1179" 2 2 48 13
"1180" 2 1 20 12
"1181" 1 3 38 16
"1182" 2 5 68 7
"1183" 2 4 41 12
"1184" 1 0 25 16
"1185" 2 4 49 11
"1186" 2 4 57 12
"1187" 2 3 44 13
"1188" 2 4 73 8
"1189" 2 8 72 5
"1190" 1 2 27 14
"1191" 1 4 60 9
"1192" 1 0 21 13
"1193" 2 2 55 14
"1194" 2 1 29 16
"1195" 2 1 38 14
"1196" 1 0 54 18
"1197" 1 3 79 8
"1198" 1 3 53 9
"1199" 1 0 27 14
"1200" 2 5 59 13
"1201" 1 1 32 10
"1202" 1 0 20 12
"1203" 2 1 87 14
"1204" 2 1 31 17
"1205" 2 0 82 12
"1206" 2 3 78 16
"1207" 2 1 83 16
"1208" 2 2 29 12
"1209" 1 0 66 12
"1210" 1 0 22 12
"1211" 1 1 89 13
"1212" 2 3 42 12
"1213" 2 2 39 14
"1214" 2 2 32 18
"1215" 1 3 51 12
"1216" 2 2 30 16
"1217" 1 1 37 16
"1218" 2 3 69 12
"1219" 2 3 78 12
"1220" 1 4 51 8
"1221" 1 0 42 12
"1222" 2 1 75 12
"1223" 1 7 56 8
"1224" 1 2 29 11
"1225" 2 0 72 14
"1226" 1 0 26 16
"1227" 1 0 30 13
"1228" 2 2 76 14
"1229" 2 0 24 16
"1230" 2 2 33 12
"1231" 2 3 66 12
"1232" 2 3 67 13
"1233" 1 4 65 11
"1234" 2 2 59 12
"1235" 2 0 20 8
"1236" 2 2 85 8
"1237" 1 4 39 14
"1238" 2 4 32 7
"1239" 2 5 63 12
"1240" 2 4 35 12
"1241" 1 3 77 8
"1242" 1 0 21 12
"1243" 2 3 45 14
"1244" 2 0 22 15
"1245" 2 2 34 16
"1246" 2 2 66 14
"1247" 2 2 26 14
"1248" 2 2 32 12
"1249" 2 4 39 13
"1250" 1 1 74 12
"1251" 2 7 61 12
"1252" 2 2 35 13
"1253" 1 2 26 14
"1254" 2 7 51 12
"1255" 2 2 45 12
"1256" 2 2 24 13
"1257" 2 3 73 16
"1258" 2 1 87 8
"1259" 2 3 41 12
"1260" 2 2 37 12
"1261" 2 0 29 9
"1262" 2 1 48 12
"1263" 2 4 58 13
"1264" 1 2 63 12
"1265" 2 3 73 10
"1266" 2 6 54 9
"1267" 1 0 22 9
"1268" 2 2 45 12
"1269" 2 1 23 12
"1270" 2 0 88 13
"1271" 1 1 36 14
"1272" 1 2 39 16
"1273" 2 1 23 12
"1274" 2 1 49 16
"1275" 1 5 71 8
"1276" 1 8 82 7
"1277" 2 1 41 12
"1278" 2 3 68 12
"1279" 2 2 60 10
"1280" 1 3 47 16
"1281" 2 4 60 9
"1282" 2 1 41 12
"1283" 2 5 55 12
"1284" 2 2 27 9
"1285" 2 2 48 15
"1286" 2 0 79 8
"1287" 2 0 61 12
"1288" 2 4 52 13
"1289" 1 1 36 12
"1290" 2 0 21 12
"1291" 2 0 33 16
"1292" 2 2 41 12
"1293" 1 4 43 16
"1294" 2 2 39 7
"1295" 1 3 43 12
"1296" 2 5 60 13
"1297" 2 4 50 16
"1298" 1 1 43 18
"1299" 1 1 49 17
"1300" 1 2 63 20
"1301" 2 3 74 12
"1302" 2 2 34 12
"1303" 2 1 39 14
"1304" 2 1 34 12
"1305" 1 0 22 15
"1306" 1 1 49 20
"1307" 2 7 36 9
"1308" 1 0 28 12
"1309" 1 0 65 16
"1310" 2 2 28 12
"1311" 2 0 65 11
"1312" 1 0 22 12
"1313" 1 3 59 13
"1314" 1 5 79 6
"1315" 1 3 33 12
"1316" 2 2 41 12
"1317" 2 0 35 12
"1318" 2 0 58 15
"1319" 1 2 32 12
"1320" 2 1 32 12
"1321" 2 2 26 12
"1322" 2 3 58 12
"1323" 1 0 21 12
"1324" 1 3 63 10
"1325" 2 3 37 9
"1326" 1 0 32 12
"1327" 1 3 45 8
"1328" 1 1 36 14
"1329" 1 4 28 12
"1330" 1 2 43 14
"1331" 2 8 80 8
"1332" 1 0 42 12
"1333" 2 0 33 14
"1334" 1 0 49 12
"1335" 2 5 58 12
"1336" 2 0 65 14
"1337" 1 4 74 12
"1338" 1 3 43 19
"1339" 1 6 73 8
"1340" 1 3 73 12
"1341" 2 6 76 12
"1342" 1 2 69 8
"1343" 2 4 54 12
"1344" 2 5 67 12
"1345" 2 0 60 10
"1346" 2 2 70 14
"1347" 2 2 37 12
"1348" 2 2 40 12
"1349" 2 5 71 12
"1350" 2 1 78 11
"1351" 1 2 48 8
"1352" 2 2 34 12
"1353" 1 0 32 12
"1354" 2 5 54 11
"1355" 1 1 24 11
"1356" 1 2 44 11
"1357" 2 1 48 10
"1358" 1 1 25 12
"1359" 2 3 54 12
"1360" 2 0 77 10
"1361" 2 2 61 11
"1362" 2 1 71 16
"1363" 2 1 77 12
"1364" 2 1 27 17
"1365" 2 1 62 8
"1366" 2 5 61 6
"1367" 1 1 22 12
"1368" 2 3 33 12
"1369" 2 3 25 12
"1370" 2 7 51 8
"1371" 1 3 75 12
"1372" 1 5 67 11
"1373" 2 6 40 13
"1374" 2 6 32 12
"1375" 2 0 26 12
"1376" 1 2 34 12
"1377" 2 3 30 13
"1378" 2 0 53 8
"1379" 1 1 47 12
"1380" 2 6 61 9
"1381" 2 0 50 16
"1382" 1 0 68 7
"1383" 1 3 76 6
"1384" 2 3 56 8
"1385" 2 2 44 14
"1386" 2 2 39 11
"1387" 1 0 59 4
"1388" 2 2 43 11
"1389" 2 4 78 8
"1390" 1 3 48 16
"1391" 2 2 48 16
"1392" 1 1 47 16
"1393" 1 3 44 11
"1394" 2 0 22 15
"1395" 1 3 47 12
"1396" 2 1 27 11
"1397" 2 0 44 19
"1398" 1 0 38 6
"1399" 2 0 26 12
"1400" 2 2 32 16
"1401" 2 4 NA 13
"1402" 2 2 32 12
"1403" 2 1 33 12
"1404" 2 4 71 8
"1405" 2 1 55 9
"1406" 2 9 48 10
"1407" 2 4 69 8
"1408" 2 2 41 12
"1409" 2 1 57 12
"1410" 1 1 35 16
"1411" 2 7 42 13
"1412" 2 3 64 8
"1413" 2 4 64 13
"1414" 1 0 45 7
"1415" 1 1 51 13
"1416" 1 1 71 9
"1417" 2 1 77 11
"1418" 2 0 21 15
"1419" 1 0 22 15
"1420" 2 0 20 14
"1421" 1 0 21 14
"1422" 1 0 21 15
"1423" 1 0 24 16
"1424" 1 0 22 15
"1425" 1 0 23 14
"1426" 2 2 73 8
"1427" 2 3 78 7
"1428" 1 0 23 15
"1429" 1 0 22 14
"1430" 2 0 22 16
"1431" 1 0 27 19
"1432" 1 9 23 14
"1433" 2 0 21 13
"1434" 2 0 22 15
"1435" 2 0 23 16
"1436" 2 0 22 15
"1437" 1 0 22 15
"1438" 2 0 34 16
"1439" 2 1 37 14
"1440" 2 1 68 17
"1441" 2 0 43 20
"1442" 2 5 78 7
"1443" 2 8 63 7
"1444" 1 0 28 17
"1445" 2 1 35 14
"1446" 1 1 47 10
"1447" 2 2 22 10
"1448" 1 0 82 5
"1449" 2 1 28 12
"1450" 2 1 65 8
"1451" 2 0 24 15
"1452" 2 4 50 8
"1453" 2 6 52 5
"1454" 1 9 58 NA
"1455" 1 5 41 11
"1456" 2 3 33 13
"1457" 1 2 35 12
"1458" 2 3 41 12
"1459" 2 3 43 13
"1460" 2 2 32 16
"1461" 2 1 36 12
"1462" 1 2 34 12
"1463" 2 2 33 10
"1464" 1 3 30 11
"1465" 2 2 31 12
"1466" 1 2 62 12
"1467" 2 2 47 11
"1468" 2 0 31 12
"1469" 2 0 73 7
"1470" 2 7 71 6
"1471" 2 1 81 11
"1472" 2 2 57 13
"1473" 2 2 73 11
"1474" 2 4 41 10
"1475" 2 3 69 10
"1476" 1 1 61 3
"1477" 1 2 32 14
"1478" 1 2 44 13
"1479" 2 2 43 12
"1480" 2 3 76 12
"1481" 2 2 34 14
"1482" 2 3 82 12
"1483" 2 3 34 13
"1484" 2 1 41 14
"1485" 2 0 30 12
"1486" 1 1 27 12
"1487" 1 1 39 12
"1488" 1 2 41 19
"1489" 2 2 72 16
"1490" 1 0 35 12
"1491" 2 2 35 11
"1492" 2 3 66 16
"1493" 1 3 64 6
"1494" 2 0 29 14
"1495" 2 3 50 10
"1496" 2 1 31 14
"1497" 2 3 56 12
"1498" 2 2 48 12
"1499" 2 3 60 10
"1500" 2 2 73 13
"1501" 2 2 36 14
"1502" 2 2 32 14
"1503" 2 2 28 19
"1504" 1 0 45 12
"1505" 2 5 66 12
"1506" 1 2 33 12
"1507" 1 3 51 12
"1508" 1 3 42 12
"1509" 1 0 22 13
"1510" 2 8 70 7
"1511" 1 0 48 10
"1512" 1 0 35 12
"1513" 1 0 35 12
"1514" 1 0 82 12
"1515" 1 1 30 9
"1516" 1 4 70 12
"1517" 2 3 47 12
