0001.sor
0002.sor
0003.sor
0004.sor
0005.sor
0006.sor
0007.sor
0008.sor
0009.sor
00010.sor
00011.sor
00012.sor
00013.sor
00014.sor
00015.sor
00016.sor
00017.sor
00018.sor
1.sor
2.sor
3.sor
4.sor
5.sor
6.sor
7.sor
8.sor
9.sor
10.sor
11.sor
12.sor
13.sor
14.sor
15.sor
16.sor
17.sor
18.sor
