s =
c =  {s( f(u), v, x ) , s( x, u, z ) , s( f(v), f(z), y )}

s = [x/f(u)]
c =  {s( f(u), v, f(u) ) , s( f(u), u, z ) , s( f(v), f(z), y )}

s = [x/f(u)][v/u]
c =  {s( f(u), u, f(u) ) , s( f(u), u, z ) , s( f(u), f(z), y )}

s = [x/f(u)][v/u][z/f(u)]
c =  {s( f(u), u, f(u) ) , s( f(u), u, f(u) ) , s( f(u), f(f(u)), y )}
c =  {s( f(u), u, f(u) ) , s( f(u), f(f(u)), y )}

s = [x/f(u)][v/u][z/f(u)]
c =  {s( f(u), u, f(u) ) , s( f(u), f(f(u)), y )}
[u/f(f(u))] lenne a kovetkezo, de f(f(u))-ban van u, es igy nem egyesithetoek, megall az algoritmus

remelem az hogy vim-ben keszult a megoldas nem baj
:s is op for this
remelem nem neztem be semmit :)
